G21         ; Set units to mm
G90         ; Absolute positioning
G1 Z2.54 F2540      ; Move to clearance level

;
; Operation:    0
; Name:         
; Type:         Pocket
; Paths:        1
; Direction:    Conventional
; Cut Depth:    3.175
; Pass Depth:   6
; Plunge rate:  127
; Cut rate:     120
;

; Path 0
; Rapid to initial position
G1 X55.5120 Y-25.4714 F2540
M3 S600
G1 Z0.0000
; plunge
;G1 Z-3.1750 F127
; cut
G1 X24.4475 Y-25.4714 F120
G1 X24.4475 Y-24.4475
G1 X55.5120 Y-24.4475
G1 X55.5120 Y-25.4714
G1 X58.0520 Y-28.0114
G1 X21.9075 Y-28.0114
G1 X21.9075 Y-21.9075
G1 X58.0520 Y-21.9075
G1 X58.0520 Y-28.0114
G1 X60.5920 Y-30.5514
G1 X19.3675 Y-30.5514
G1 X19.3675 Y-19.3675
G1 X60.5920 Y-19.3675
G1 X60.5920 Y-30.5514
G1 X63.1320 Y-33.0914
G1 X16.8275 Y-33.0914
G1 X16.8275 Y-16.8275
G1 X63.1320 Y-16.8275
G1 X63.1320 Y-33.0914
G1 X65.6720 Y-35.6314
G1 X14.2875 Y-35.6314
G1 X14.2875 Y-14.2875
G1 X65.6720 Y-14.2875
G1 X65.6720 Y-35.6314
G1 X68.2120 Y-38.1714
G1 X11.7475 Y-38.1714
G1 X11.7475 Y-11.7475
G1 X68.2120 Y-11.7475
G1 X68.2120 Y-38.1714
G1 X70.7520 Y-40.7114
G1 X9.2075 Y-40.7114
G1 X9.2075 Y-9.2075
G1 X70.7520 Y-9.2075
G1 X70.7520 Y-40.7114
G1 X73.2920 Y-43.2514
G1 X6.6675 Y-43.2514
G1 X6.6675 Y-6.6675
G1 X73.2920 Y-6.6675
G1 X73.2920 Y-43.2514
G1 X75.8320 Y-45.7914
G1 X4.1275 Y-45.7914
G1 X4.1275 Y-4.1275
G1 X75.8320 Y-4.1275
G1 X75.8320 Y-45.7914
G1 X78.3720 Y-48.3314
G1 X1.5875 Y-48.3314
G1 X1.5875 Y-1.5875
G1 X78.3720 Y-1.5875
G1 X78.3720 Y-48.3314
; Retract
G1 Z2.5400 F2540
M2
