<?xml version="1.0" encoding="UTF-8" standalone="no"?>
<!-- Created with Inkscape (http://www.inkscape.org/) -->

<svg
   id="svg3882"
   version="1.1"
   viewBox="0 0 79.998215 50.000565"
   height="50.000565mm"
   width="79.998215mm"
   inkscape:version="1.3 (0e150ed, 2023-07-21)"
   sodipodi:docname="mirrors.prep.svg"
   xmlns:inkscape="http://www.inkscape.org/namespaces/inkscape"
   xmlns:sodipodi="http://sodipodi.sourceforge.net/DTD/sodipodi-0.dtd"
   xmlns="http://www.w3.org/2000/svg"
   xmlns:svg="http://www.w3.org/2000/svg"
   xmlns:rdf="http://www.w3.org/1999/02/22-rdf-syntax-ns#"
   xmlns:cc="http://creativecommons.org/ns#"
   xmlns:dc="http://purl.org/dc/elements/1.1/">
  <defs
     id="defs3876" />
  <sodipodi:namedview
     id="base"
     pagecolor="#ffffff"
     bordercolor="#666666"
     borderopacity="1.0"
     inkscape:pageopacity="0.0"
     inkscape:pageshadow="2"
     inkscape:zoom="2.4453686"
     inkscape:cx="57.66002"
     inkscape:cy="161.32537"
     inkscape:document-units="mm"
     inkscape:current-layer="g1"
     showgrid="true"
     inkscape:window-width="1512"
     inkscape:window-height="916"
     inkscape:window-x="2559"
     inkscape:window-y="38"
     inkscape:window-maximized="0"
     borderlayer="true"
     inkscape:lockguides="false"
     inkscape:showpageshadow="2"
     inkscape:pagecheckerboard="0"
     inkscape:deskcolor="#d1d1d1">
    <inkscape:grid
       id="grid3885"
       units="mm"
       type="xygrid"
       empspacing="1"
       spacingy="2.54"
       spacingx="2.54"
       originx="-0.001953125"
       originy="-0.0019531249"
       visible="true" />
    <inkscape:grid
       spacingx="2.54"
       spacingy="2.54"
       empspacing="1"
       type="xygrid"
       units="mm"
       id="grid3962"
       originx="-0.001953125"
       originy="-0.0019531249"
       visible="true" />
  </sodipodi:namedview>
  <metadata
     id="metadata3879">
    <rdf:RDF>
      <cc:Work
         rdf:about="">
        <dc:format>image/svg+xml</dc:format>
        <dc:type
           rdf:resource="http://purl.org/dc/dcmitype/StillImage" />
        <dc:title />
      </cc:Work>
    </rdf:RDF>
  </metadata>
  <g
     id="g1"
     sodipodi:insensitive="true"
     inkscape:groupmode="layer"
     inkscape:label="BG Cut"
     style="display:inline"
     transform="translate(-5.1676431e-4,-5.167643e-4)">
    <path
       id="rect3"
       style="display:inline;fill:#0c00ff;fill-opacity:1;stroke:none;stroke-width:0.264583;stroke-opacity:1"
       d="M 5.1676432e-4,5.1676432e-4 V 50.001082 H 79.998735 V 5.1676432e-4 Z M 25.129215,7.764384 l 0.817522,0.010852 0.796333,0.045475 0.77463,0.077515 0.751892,0.1059367 0.728121,0.1317749 0.703316,0.1545125 0.677478,0.1741496 0.65009,0.1912028 0.622184,0.2051554 0.593246,0.2160075 0.563273,0.223759 0.53175,0.2284098 0.499711,0.2304769 0.89917,0.4552689 0.757577,0.427364 0.608231,0.376205 0.450102,0.30024 0.220142,0.166915 0.202055,0.1788 0.183451,0.190686 0.166915,0.201538 0.150378,0.21084 0.134876,0.220142 0.119889,0.227376 0.106453,0.234611 0.101803,0.264584 0.08733,0.270267 0.134876,0.553455 0.08888,0.561206 0.05116,0.559139 0.02325,0.546737 0.0031,0.523999 -0.0186,0.939994 -10e-4,0.958081 0.01602,1.503784 0.06408,3.815271 0.102836,5.04517 -0.04702,0.05271 -0.02532,0.445968 -0.04031,0.443384 -0.05581,0.4408 -0.07131,0.437699 -0.08578,0.434599 -0.101286,0.430464 -0.115755,0.426848 -0.130742,0.421679 -0.144694,0.417029 -0.159163,0.411861 -0.173633,0.406177 -0.187068,0.399459 -0.201022,0.393258 -0.214974,0.386539 -0.227893,0.378789 -0.241846,0.371553 -0.254248,0.362769 -0.267683,0.355017 -0.280604,0.345715 -0.293005,0.335897 -0.305924,0.327112 -0.31781,0.316259 -0.330213,0.305925 -0.342098,0.295589 -0.353983,0.283704 -0.36587,0.271818 -0.377237,0.260449 -0.389124,0.24753 -0.399976,0.234611 -0.410827,0.221175 -0.42168,0.20774 -0.432532,0.193786 -0.513147,0.205672 -0.515214,0.180868 -0.517798,0.15813 -0.519348,0.134875 -0.157096,0.522449 -0.15658,0.426847 -0.206705,0.47284 -0.05323,0.139009 -0.03152,0.148828 -0.01395,0.157097 -0.001,0.165881 0.05116,0.731222 0.0021,0.396875 -0.01912,0.203605 -0.03721,0.206705 -0.05995,0.208773 -0.08682,0.209807 -0.117306,0.210839 -0.151412,0.210323 -0.187585,0.192237 -0.220142,0.158646 -0.24908,0.128675 -0.274402,0.101286 -0.295073,0.07751 -0.313159,0.05581 -0.327112,0.03721 -0.33693,0.02222 -0.688847,0.0093 -0.684196,-0.01705 -0.649573,-0.02015 h -0.58446 l -1.537374,0.04031 -1.007174,0.01447 -1.075903,-5.16e-4 -1.07797,-0.02222 -1.012342,-0.05219 -0.460437,-0.03979 -0.419095,-0.05013 -0.36897,-0.0615 -0.310576,-0.0739 -0.152962,-0.05684 -0.1788,-0.0894 L 14.778943,44.92594 14.264762,44.535266 13.680819,44.038656 13.041064,43.445927 12.358936,42.767932 11.648385,42.015007 10.923881,41.196969 10.198861,40.32467 9.487793,39.408447 8.8046305,38.458634 8.1628092,37.485567 7.5767985,36.500098 7.3091146,36.006071 7.0605509,35.512044 6.8326579,35.020601 6.6275024,34.532259 6.4466349,34.048568 6.2921224,33.571077 6.1556966,33.078601 6.0280558,32.551501 5.9123006,31.991846 5.8089478,31.401701 5.7200643,30.783134 5.6477173,30.137695 5.593457,29.468486 5.5588338,28.776021 5.5453979,28.06392 l 0.00982,-0.730705 0.03514,-0.746724 0.060978,-0.761194 0.0894,-0.773079 0.1193725,-0.782898 0.1508952,-0.791167 0.1844849,-0.797367 0.219108,-0.801501 0.2563151,-0.803052 0.2945557,-0.803052 0.3343465,-0.800468 0.3767212,-0.79685 0.4201294,-0.790133 0.4656047,-0.781864 0.5121134,-0.77153 0.5612061,-0.759126 0.6113324,-0.744658 0.663525,-0.728121 0.717269,-0.709517 0.773079,-0.688847 0.829924,-0.666109 0.888835,-0.641821 0.949812,-0.614433 0.976685,-0.566374 0.966866,-0.4986775 0.957048,-0.4345988 0.945678,-0.3731038 0.933277,-0.3147095 0.91984,-0.2594157 0.904854,-0.2067057 0.889869,-0.1570964 0.873331,-0.1111043 0.855762,-0.067179 z m 29.313973,0.05271 0.837159,0.026872 0.855761,0.067179 0.872815,0.1105876 0.889869,0.1576131 0.905371,0.2067057 0.91984,0.258899 0.933276,0.3152262 0.945162,0.3731038 0.957048,0.4340821 0.967383,0.4991945 0.976684,0.565857 0.949296,0.614949 0.889352,0.641822 0.829923,0.666109 0.772563,0.688847 0.717269,0.709517 0.664042,0.728121 0.611332,0.744657 0.560689,0.759127 0.512631,0.771529 0.465604,0.781865 0.42013,0.790132 0.376204,0.796334 0.334863,0.800985 0.294556,0.803052 0.256315,0.803051 0.219108,0.800985 0.184485,0.797367 0.150895,0.791167 0.119373,0.783414 0.0894,0.77308 0.06098,0.761194 0.03462,0.746724 0.0098,0.730705 -0.01344,0.712101 -0.03462,0.691947 -0.05426,0.669727 -0.07235,0.644922 -0.08837,0.619084 -0.103353,0.590144 -0.116272,0.559656 -0.127124,0.5271 -0.136942,0.491959 -0.154513,0.478007 -0.180867,0.483692 -0.204639,0.488342 -0.227893,0.491443 -0.248564,0.49351 -0.268201,0.494543 -0.58601,0.98547 -0.641305,0.973067 -0.683679,0.949813 -0.711068,0.915706 -0.724503,0.872299 -0.724504,0.818037 -0.710551,0.753443 -0.682129,0.677995 -0.640271,0.592728 -0.583943,0.496611 -0.513664,0.390674 -0.429948,0.273368 -0.179317,0.08992 -0.152446,0.05684 -0.310575,0.0739 -0.36897,0.0615 -0.419096,0.05013 -0.460437,0.03979 -1.012341,0.05219 -1.07797,0.02222 h -1.07642 l -1.006657,-0.01395 -1.537891,-0.04082 h -0.58446 l -0.649056,0.02067 -0.684713,0.01705 -0.688847,-0.0093 -0.33693,-0.02222 -0.326595,-0.03772 -0.31316,-0.05581 -0.295589,-0.077 -0.273885,-0.101802 -0.24908,-0.128675 -0.220142,-0.158646 -0.187585,-0.19172 -0.151929,-0.21084 -0.117306,-0.210323 -0.0863,-0.210323 -0.05994,-0.208256 -0.03772,-0.206706 -0.0186,-0.204121 0.0016,-0.396875 0.05116,-0.730705 -5.17e-4,-0.165882 -0.01447,-0.157613 -0.03152,-0.148828 -0.05271,-0.139009 -0.207222,-0.472323 -0.156063,-0.427364 -0.157613,-0.522449 -0.518832,-0.134875 -0.517798,-0.157613 -0.51573,-0.181385 -0.512631,-0.205155 -0.432531,-0.193787 -0.422197,-0.207739 -0.410827,-0.221175 -0.399976,-0.235128 -0.388607,-0.24753 -0.377238,-0.259932 -0.365869,-0.272335 -0.353983,-0.283704 -0.342098,-0.295072 -0.330213,-0.305925 -0.318327,-0.316776 -0.305407,-0.326595 -0.293523,-0.336414 -0.280086,-0.345715 -0.267684,-0.354501 -0.254765,-0.363285 -0.241328,-0.371037 -0.22841,-0.379305 -0.214457,-0.386023 -0.201022,-0.393257 -0.187585,-0.399976 -0.173116,-0.40566 -0.159164,-0.411861 -0.14521,-0.417029 -0.130225,-0.422196 -0.115755,-0.426331 -0.101286,-0.430981 -0.0863,-0.434082 -0.07131,-0.438217 -0.05581,-0.440799 -0.04031,-0.443384 -0.02481,-0.445451 -0.04754,-0.05271 0.102836,-5.045687 0.06408,-3.814754 0.01654,-1.503784 -10e-4,-0.958081 -0.01912,-0.939995 0.0031,-0.524516 0.02325,-0.546736 0.05168,-0.559139 0.08888,-0.561206 0.134359,-0.552938 0.08733,-0.270785 0.101802,-0.264583 0.106454,-0.234094 0.120406,-0.227893 0.134876,-0.219625 0.150378,-0.21084 0.166398,-0.201538 0.183968,-0.190686 0.201538,-0.179317 0.220659,-0.166398 0.450101,-0.300757 0.608232,-0.375688 0.757576,-0.427364 0.898654,-0.4552693 0.499711,-0.2304769 0.532267,-0.2289266 0.563273,-0.2237589 0.592729,-0.2154907 0.622701,-0.2051555 0.650089,-0.1912028 0.677478,-0.1741495 0.7028,-0.1545126 0.728121,-0.1317749 0.751892,-0.1059367 0.775146,-0.077515 0.796334,-0.045475 z m -28.793591,12.981636 -0.349333,0.0093 -0.349849,0.02635 -0.350366,0.04444 -0.350366,0.06201 -0.348816,0.08062 -0.347783,0.09819 -0.345715,0.117306 -0.342615,0.135909 -0.33538,0.152962 -0.324011,0.167948 -0.311609,0.181901 -0.299723,0.196371 -0.287321,0.209289 -0.274919,0.221692 -0.261999,0.234094 -0.249081,0.245463 -0.235128,0.255799 -0.222208,0.26665 -0.208256,0.275952 -0.194304,0.285254 -0.179834,0.293522 -0.165364,0.301791 -0.150895,0.309025 -0.135909,0.315226 -0.120406,0.321944 -0.104904,0.327112 -0.0894,0.33228 -0.0739,0.336413 -0.05736,0.340031 -0.04082,0.343648 -0.02429,0.346232 -0.0078,0.347783 0.0098,0.349332 0.02687,0.350367 0.04444,0.350366 0.06201,0.350366 0.08062,0.348816 0.09818,0.347782 0.117306,0.345716 0.135909,0.342614 0.152962,0.334864 0.167432,0.323494 0.182418,0.312126 0.195853,0.299206 0.20929,0.287321 0.221692,0.274919 0.233577,0.261483 0.245463,0.24908 0.255799,0.235645 0.266133,0.222208 0.275952,0.208256 0.285254,0.194304 0.293522,0.179834 0.301274,0.165881 0.308508,0.150895 0.315743,0.135909 0.321428,0.120406 0.327112,0.10542 0.331762,0.0894 0.336414,0.0739 0.340548,0.05788 0.343131,0.04083 0.345715,0.0248 0.3483,0.0078 0.349332,-0.0098 0.34985,-0.02636 0.350366,-0.04444 0.350366,-0.06201 0.348816,-0.08062 0.347782,-0.09818 0.345716,-0.117306 0.342614,-0.135392 0.335381,-0.152962 0.323494,-0.167949 0.312126,-0.182418 0.299723,-0.19637 0.287321,-0.20929 0.274919,-0.221692 0.261999,-0.234094 0.24908,-0.244946 0.235128,-0.256315 0.222209,-0.266651 0.208256,-0.275952 0.194303,-0.285254 0.179834,-0.293522 0.165365,-0.301273 0.150895,-0.309025 0.135909,-0.315227 0.120406,-0.321944 0.10542,-0.327112 0.0894,-0.331762 0.07338,-0.336414 0.05788,-0.340031 0.04083,-0.343131 0.02429,-0.346232 0.0078,-0.347783 -0.0093,-0.349333 -0.02687,-0.349849 -0.04444,-0.350366 -0.06201,-0.34985 -0.0801,-0.348816 -0.0987,-0.347265 -0.116789,-0.345199 -0.135909,-0.342098 -0.152962,-0.335897 -0.167949,-0.323494 -0.181901,-0.312126 -0.19637,-0.299723 -0.20929,-0.287838 -0.221692,-0.274918 -0.234094,-0.262 -0.244946,-0.24908 -0.256315,-0.235645 -0.266134,-0.222208 -0.275952,-0.208773 -0.285254,-0.194304 -0.293522,-0.18035 -0.301274,-0.165365 -0.309025,-0.150895 -0.315226,-0.136426 -0.321944,-0.120406 -0.327112,-0.10542 -0.331763,-0.08992 -0.336413,-0.0739 -0.340031,-0.05736 -0.343648,-0.04134 -0.345716,-0.02481 z m 28.27321,0.05271 -0.347783,0.0078 -0.346232,0.02481 -0.343131,0.04134 -0.340031,0.05736 -0.336414,0.0739 -0.332279,0.0894 -0.327112,0.10542 -0.321427,0.120923 -0.315743,0.135909 -0.308509,0.150895 -0.301273,0.165881 -0.294039,0.180351 -0.284737,0.194304 -0.275952,0.208772 -0.266651,0.222209 -0.255798,0.235645 -0.245463,0.24908 -0.233578,0.261999 -0.222208,0.274919 -0.20929,0.287838 -0.195854,0.299723 -0.182417,0.311609 -0.167949,0.324011 -0.152962,0.33538 -0.135392,0.342615 -0.117306,0.345199 -0.09819,0.347265 -0.0801,0.348816 -0.06253,0.34985 -0.04393,0.350366 -0.02687,0.349849 -0.0098,0.349333 0.0078,0.347782 0.02429,0.345716 0.04134,0.343131 0.05736,0.340548 0.07338,0.336413 0.08992,0.331763 0.104903,0.327112 0.120923,0.321427 0.135392,0.315743 0.150895,0.308509 0.165365,0.30179 0.18035,0.293522 0.193787,0.285254 0.208256,0.275952 0.222209,0.266134 0.235644,0.256315 0.249081,0.245463 0.261482,0.234094 0.274919,0.221692 0.287321,0.20929 0.299723,0.195853 0.312126,0.182418 0.324011,0.167949 0.33538,0.152962 0.342615,0.135909 0.345199,0.117305 0.347782,0.09819 0.349333,0.0801 0.349849,0.06253 0.350366,0.04393 0.350367,0.02687 0.349332,0.0093 0.347783,-0.0072 0.346232,-0.0248 0.343131,-0.04134 0.340031,-0.05736 0.336414,-0.0739 0.332279,-0.0894 0.327112,-0.10542 0.321427,-0.120923 0.315227,-0.135909 0.309025,-0.150895 0.301273,-0.165365 0.293522,-0.18035 0.284738,-0.194304 0.275952,-0.208256 0.266133,-0.221692 0.256315,-0.235644 0.244947,-0.249081 0.234094,-0.261999 0.221692,-0.274402 0.209289,-0.287321 0.195854,-0.299723 0.181901,-0.311609 0.167949,-0.323495 0.152962,-0.334863 0.135392,-0.343131 0.117306,-0.345199 0.0987,-0.347782 0.0801,-0.348816 0.06253,-0.350366 0.04444,-0.350367 0.02687,-0.350366 0.0093,-0.349332 -0.0072,-0.3483 -0.02429,-0.345715 -0.04134,-0.343648 -0.05736,-0.340031 -0.07338,-0.336931 -0.0894,-0.331762 -0.10542,-0.327629 -0.120406,-0.321427 -0.135909,-0.315743 -0.150378,-0.308508 -0.165365,-0.301791 -0.18035,-0.293522 -0.193787,-0.285254 -0.208256,-0.275952 -0.222209,-0.26665 -0.235644,-0.256316 -0.249081,-0.244946 -0.261482,-0.234094 -0.274919,-0.221692 -0.287321,-0.20929 -0.299723,-0.19637 -0.312126,-0.182418 -0.324011,-0.167948 -0.33538,-0.152962 -0.342615,-0.135909 -0.345715,-0.116789 -0.347266,-0.0987 -0.349333,-0.0801 -0.349849,-0.06201 -0.350366,-0.04444 -0.350367,-0.02687 z m -42.667163,12.57546 -0.27957,0.03101 -0.270268,0.08423 -0.252697,0.137976 -0.117306,0.08888 -0.110071,0.10232 -0.0987,0.113171 -0.08527,0.119889 -0.1302243,0.257866 -0.075964,0.273368 -0.022738,0.28112 0.031523,0.280603 0.084749,0.271301 0.1384933,0.253731 0.08888,0.117823 0.102319,0.110587 0.113172,0.09922 0.119889,0.0863 0.256832,0.131258 0.273368,0.077 0.280087,0.02325 0.279569,-0.03049 0.270785,-0.08423 0.252697,-0.137459 0.117306,-0.08888 0.110071,-0.10232 0.140043,-0.167948 0.111621,-0.183452 0.0832,-0.19637 0.05374,-0.205155 0.02377,-0.21084 -0.0067,-0.212907 -0.03824,-0.21239 -0.06976,-0.207223 -0.14056,-0.258382 -0.188619,-0.224792 -0.0015,-0.001 -0.113172,-0.09974 -0.119889,-0.08578 -0.257349,-0.131258 -0.272851,-0.077 z m 57.061116,0.05323 -0.287837,0.0248 -0.274919,0.07958 -0.254765,0.131775 -0.226343,0.180351 -0.001,0.0016 -0.189136,0.224793 -0.140043,0.257865 -0.07028,0.207739 -0.03824,0.211874 -0.0067,0.213423 0.02377,0.21084 0.05374,0.205156 0.0832,0.19637 0.112138,0.183452 0.140043,0.167431 0.220142,0.186552 0.250114,0.138493 0.272851,0.08682 0.286804,0.03204 0.287838,-0.02481 0.274919,-0.07958 0.254248,-0.132291 0.226343,-0.180351 0.186552,-0.221692 0.139009,-0.251147 0.08733,-0.273369 0.03307,-0.287838 -0.02377,-0.288871 -0.07906,-0.275435 -0.130741,-0.254765 -0.179317,-0.226343 -0.220659,-0.186552 -0.250114,-0.138492 -0.272335,-0.08682 z"
       inkscape:label="bg cut" />
  </g>
</svg>
