G21         ; Set units to mm
G90         ; Absolute positioning
G1 Z2.54 F2540      ; Move to clearance level

;
; Operation:    0
; Name:         
; Type:         Inside
; Paths:        7
; Direction:    Conventional
; Cut Depth:    0.3
; Pass Depth:   0.3
; Plunge rate:  127
; Cut rate:     60
;

; Path 0
; Rapid to initial position
G1 X78.9983 Y-49.0007 F2540
M3 S800
G1 Z0.0000
; plunge
G1 Z-0.3000 F127
; cut
;G1 X1.0000 Y-49.0007 F60
;G1 X1.0000 Y-1.0000
;G1 X78.9983 Y-1.0000
;G1 X78.9983 Y-49.0007
; Retract
G1 Z2.5400 F2540

; Path 1
; Rapid to initial position
G1 X70.1627 Y-40.9903 F2540
G1 Z0.0000
; plunge
G1 Z-0.3000 F127
; cut
G1 X70.8739 Y-40.0746 F60
G1 X70.8960 Y-40.0451
G1 X71.5795 Y-39.0952
G1 X71.6026 Y-39.0616
G1 X72.2439 Y-38.0886
G1 X72.2686 Y-38.0492
G1 X72.8546 Y-37.0639
G1 X72.8741 Y-37.0296
G1 X73.1563 Y-36.5084
G1 X73.4192 Y-35.9855
G1 X73.6470 Y-35.4940
G1 X73.6620 Y-35.4599
G1 X73.8668 Y-34.9715
G1 X73.8812 Y-34.9352
G1 X74.0621 Y-34.4515
G1 X74.0768 Y-34.4086
G1 X74.2312 Y-33.9306
G1 X74.2432 Y-33.8912
G1 X74.3887 Y-33.3659
G1 X74.5231 Y-32.8074
G1 X74.6450 Y-32.2171
G1 X74.7532 Y-31.5958
G1 X74.8454 Y-30.9469
G1 X74.9209 Y-30.2712
G1 X74.9772 Y-29.5704
G1 X75.0128 Y-28.8475
G1 X75.0265 Y-28.1031
G1 X75.0156 Y-27.3398
G1 X74.9788 Y-26.5595
G1 X74.9145 Y-25.7632
G1 X74.8251 Y-24.9900
G1 X74.8203 Y-24.9542
G1 X74.7009 Y-24.1709
G1 X74.6945 Y-24.1343
G1 X74.5437 Y-23.3431
G1 X74.5358 Y-23.3050
G1 X74.3514 Y-22.5077
G1 X74.3415 Y-22.4691
G1 X74.1223 Y-21.6680
G1 X74.1106 Y-21.6278
G1 X73.8543 Y-20.8250
G1 X73.8403 Y-20.7846
G1 X73.5457 Y-19.9814
G1 X73.5294 Y-19.9403
G1 X73.1947 Y-19.1394
G1 X73.1764 Y-19.0978
G1 X72.8002 Y-18.3015
G1 X72.7789 Y-18.2593
G1 X72.3588 Y-17.4691
G1 X72.3349 Y-17.4267
G1 X71.8690 Y-16.6449
G1 X71.8429 Y-16.6035
G1 X71.3303 Y-15.8318
G1 X71.3019 Y-15.7909
G1 X70.7413 Y-15.0317
G1 X70.7098 Y-14.9911
G1 X70.0984 Y-14.2466
G1 X70.0644 Y-14.2075
G1 X69.4004 Y-13.4793
G1 X69.3646 Y-13.4422
G1 X68.6473 Y-12.7328
G1 X68.6097 Y-12.6972
G1 X67.8371 Y-12.0084
G1 X67.7977 Y-11.9751
G1 X66.9679 Y-11.3088
G1 X66.9270 Y-11.2776
G1 X66.0375 Y-10.6357
G1 X65.9961 Y-10.6075
G1 X65.0469 Y-9.9926
G1 X65.0044 Y-9.9667
G1 X64.0278 Y-9.4008
G1 X63.9849 Y-9.3772
G1 X63.0174 Y-8.8781
G1 X62.9719 Y-8.8562
G1 X62.0149 Y-8.4221
G1 X61.9691 Y-8.4026
G1 X61.0240 Y-8.0294
G1 X60.9768 Y-8.0122
G1 X60.0436 Y-7.6970
G1 X59.9943 Y-7.6817
G1 X59.0743 Y-7.4229
G1 X59.0263 Y-7.4107
G1 X58.1210 Y-7.2039
G1 X58.0725 Y-7.1940
G1 X57.1828 Y-7.0366
G1 X57.1343 Y-7.0292
G1 X56.2613 Y-6.9185
G1 X56.2138 Y-6.9136
G1 X55.3580 Y-6.8466
G1 X55.3121 Y-6.8440
G1 X54.4749 Y-6.8171
G1 X54.4286 Y-6.8166
G1 X53.6118 Y-6.8280
G1 X53.5689 Y-6.8296
G1 X52.7726 Y-6.8750
G1 X52.7301 Y-6.8786
G1 X51.9549 Y-6.9560
G1 X51.9148 Y-6.9606
G1 X51.1630 Y-7.0665
G1 X51.1244 Y-7.0729
G1 X50.3961 Y-7.2047
G1 X50.3596 Y-7.2121
G1 X49.6222 Y-7.3746
G1 X48.9118 Y-7.5580
G1 X48.2313 Y-7.7587
G1 X47.5793 Y-7.9738
G1 X46.9590 Y-8.1999
G1 X46.3702 Y-8.4343
G1 X45.8140 Y-8.6738
G1 X45.3144 Y-8.9042
G1 X45.2811 Y-8.9202
G1 X44.3824 Y-9.3756
G1 X44.3433 Y-9.3967
G1 X43.5856 Y-9.8240
G1 X43.5513 Y-9.8443
G1 X42.9433 Y-10.2199
G1 X42.9133 Y-10.2390
G1 X42.4632 Y-10.5397
G1 X42.4167 Y-10.5727
G1 X42.1960 Y-10.7391
G1 X42.1335 Y-10.7904
G1 X41.9318 Y-10.9698
G1 X41.8765 Y-11.0231
G1 X41.6926 Y-11.2138
G1 X41.6410 Y-11.2715
G1 X41.4746 Y-11.4732
G1 X41.4320 Y-11.5288
G1 X41.2816 Y-11.7396
G1 X41.2438 Y-11.7968
G1 X41.1089 Y-12.0162
G1 X41.0764 Y-12.0729
G1 X40.9560 Y-12.3010
G1 X40.9301 Y-12.3538
G1 X40.8236 Y-12.5877
G1 X40.8008 Y-12.6426
G1 X40.6989 Y-12.9073
G1 X40.6804 Y-12.9593
G1 X40.5930 Y-13.2301
G1 X40.5729 Y-13.3010
G1 X40.4386 Y-13.8539
G1 X40.4226 Y-13.9337
G1 X40.3337 Y-14.4948
G1 X40.3258 Y-14.5595
G1 X40.2742 Y-15.1188
G1 X40.2709 Y-15.1679
G1 X40.2476 Y-15.7145
G1 X40.2466 Y-15.7513
G1 X40.2438 Y-16.3020
G1 X40.2626 Y-17.2298
G1 X40.2636 Y-18.1689
G1 X40.2471 Y-19.6726
G1 X40.2473 Y-19.6726
G1 X40.1833 Y-23.4780
G1 X40.0804 Y-28.5237
G1 X40.0815 Y-28.5948
G1 X40.0876 Y-28.6659
G1 X40.0987 Y-28.7363
G1 X40.1150 Y-28.8056
G1 X40.1361 Y-28.8737
G1 X40.1429 Y-28.8910
G1 X40.1566 Y-29.1328
G1 X40.2008 Y-29.6108
G1 X40.2565 Y-30.0515
G1 X40.2615 Y-30.0871
G1 X40.3393 Y-30.5598
G1 X40.4330 Y-31.0279
G1 X40.5425 Y-31.4912
G1 X40.6677 Y-31.9509
G1 X40.7980 Y-32.3731
G1 X40.8092 Y-32.4071
G1 X40.9659 Y-32.8554
G1 X41.1381 Y-33.2997
G1 X41.3258 Y-33.7373
G1 X41.5282 Y-34.1676
G1 X41.7454 Y-34.5912
G1 X41.9776 Y-35.0083
G1 X42.2242 Y-35.4162
G1 X42.4853 Y-35.8165
G1 X42.7604 Y-36.2077
G1 X43.0492 Y-36.5897
G1 X43.3294 Y-36.9354
G1 X43.3527 Y-36.9631
G1 X43.6695 Y-37.3250
G1 X43.9748 Y-37.6517
G1 X43.9999 Y-37.6779
G1 X44.3182 Y-37.9946
G1 X44.3441 Y-38.0192
G1 X44.7004 Y-38.3487
G1 X45.0426 Y-38.6438
G1 X45.0705 Y-38.6669
G1 X45.4528 Y-38.9725
G1 X45.8186 Y-39.2448
G1 X45.8488 Y-39.2664
G1 X46.2557 Y-39.5458
G1 X46.6748 Y-39.8120
G1 X47.0746 Y-40.0472
G1 X47.1081 Y-40.0662
G1 X47.5191 Y-40.2872
G1 X47.5508 Y-40.3034
G1 X47.9730 Y-40.5112
G1 X48.0057 Y-40.5267
G1 X48.4383 Y-40.7205
G1 X48.4756 Y-40.7363
G1 X48.9882 Y-40.9415
G1 X49.0281 Y-40.9565
G1 X49.5437 Y-41.1378
G1 X49.5846 Y-41.1513
G1 X50.1025 Y-41.3088
G1 X50.1172 Y-41.3128
G1 X50.1305 Y-41.3525
G1 X50.2867 Y-41.7800
G1 X50.3100 Y-41.8384
G1 X50.5074 Y-42.2882
G1 X50.5234 Y-42.3306
G1 X50.5272 Y-42.3484
G1 X50.5318 Y-42.3977
G1 X50.5323 Y-42.4886
G1 X50.4838 Y-43.1815
G1 X50.4812 Y-43.2465
G1 X50.4795 Y-43.6435
G1 X50.4838 Y-43.7398
G1 X50.5026 Y-43.9438
G1 X50.5142 Y-44.0309
G1 X50.5518 Y-44.2377
G1 X50.5750 Y-44.3354
G1 X50.6349 Y-44.5437
G1 X50.6570 Y-44.6115
G1 X50.6707 Y-44.6469
G1 X50.7571 Y-44.8572
G1 X50.7865 Y-44.9222
G1 X50.8089 Y-44.9646
G1 X50.9262 Y-45.1749
G1 X50.9631 Y-45.2359
G1 X50.9882 Y-45.2722
G1 X51.1401 Y-45.4830
G1 X51.1838 Y-45.5394
G1 X51.2364 Y-45.5976
G1 X51.4238 Y-45.7893
G1 X51.4754 Y-45.8386
G1 X51.5546 Y-45.9019
G1 X51.7749 Y-46.0604
G1 X51.8343 Y-46.1000
G1 X51.8998 Y-46.1373
G1 X52.1490 Y-46.2661
G1 X52.2135 Y-46.2963
G1 X52.2595 Y-46.3149
G1 X52.5333 Y-46.4167
G1 X52.6301 Y-46.4472
G1 X52.9257 Y-46.5242
G1 X53.0019 Y-46.5409
G1 X53.3151 Y-46.5968
G1 X53.3766 Y-46.6057
G1 X53.7030 Y-46.6433
G1 X53.7510 Y-46.6476
G1 X54.0880 Y-46.6700
G1 X54.1411 Y-46.6722
G1 X54.8300 Y-46.6814
G1 X54.8681 Y-46.6811
G1 X55.5597 Y-46.6639
G1 X56.1927 Y-46.6438
G1 X56.7446 Y-46.6438
G1 X58.2854 Y-46.6844
G1 X59.3060 Y-46.6984
G1 X60.4030 Y-46.6982
G1 X61.5119 Y-46.6750
G1 X62.5584 Y-46.6204
G1 X63.0522 Y-46.5772
G1 X63.4713 Y-46.5270
G1 X63.5165 Y-46.5206
G1 X63.8856 Y-46.4591
G1 X63.9529 Y-46.4454
G1 X64.2633 Y-46.3715
G1 X64.3319 Y-46.3525
G1 X64.3796 Y-46.3362
G1 X64.5323 Y-46.2796
G1 X64.5980 Y-46.2524
G1 X64.6326 Y-46.2359
G1 X64.8119 Y-46.1460
G1 X64.9006 Y-46.0957
G1 X65.3303 Y-45.8221
G1 X65.3987 Y-45.7746
G1 X65.9125 Y-45.3840
G1 X65.9549 Y-45.3497
G1 X66.5389 Y-44.8531
G1 X66.5706 Y-44.8249
G1 X67.2361 Y-44.2079
G1 X67.9409 Y-43.5066
G1 X68.6725 Y-42.7302
G1 X69.4179 Y-41.8879
G1 X70.1627 Y-40.9903
; Retract
G1 Z2.5400 F2540

; Path 2
; Rapid to initial position
G1 X68.4591 Y-35.3832 F2540
G1 Z0.0000
; plunge
G1 Z-0.3000 F127
; cut
G1 X68.3732 Y-35.4079 F60
G1 X68.2833 Y-35.4157
G1 X68.1924 Y-35.4056
G1 X68.1076 Y-35.3786
G1 X68.0311 Y-35.3362
G1 X67.9514 Y-35.2687
G1 X67.9153 Y-35.2255
G1 X67.8795 Y-35.1668
G1 X67.8536 Y-35.1056
G1 X67.8363 Y-35.0398
G1 X67.8287 Y-34.9730
G1 X67.8310 Y-34.9054
G1 X67.8429 Y-34.8384
G1 X67.8619 Y-34.7820
G1 X67.9125 Y-34.6888
G1 X67.9745 Y-34.6154
G1 X68.0453 Y-34.5587
G1 X68.1258 Y-34.5171
G1 X68.2112 Y-34.4924
G1 X68.3029 Y-34.4846
G1 X68.3925 Y-34.4947
G1 X68.4779 Y-34.5219
G1 X68.5556 Y-34.5651
G1 X68.6244 Y-34.6232
G1 X68.6803 Y-34.6939
G1 X68.7220 Y-34.7749
G1 X68.7469 Y-34.8612
G1 X68.7545 Y-34.9537
G1 X68.7438 Y-35.0462
G1 X68.7161 Y-35.1328
G1 X68.6725 Y-35.2115
G1 X68.6120 Y-35.2834
G1 X68.5389 Y-35.3418
G1 X68.4591 Y-35.3832
; Retract
G1 Z2.5400 F2540

; Path 3
; Rapid to initial position
G1 X59.4337 Y-30.7190 F2540
G1 Z0.0000
; plunge
G1 Z-0.3000 F127
; cut
G1 X59.2902 Y-30.9954 F60
G1 X59.1342 Y-31.2623
G1 X58.9651 Y-31.5211
G1 X58.7858 Y-31.7673
G1 X58.5958 Y-32.0030
G1 X58.3926 Y-32.2301
G1 X58.1853 Y-32.4411
G1 X57.9638 Y-32.6446
G1 X57.7342 Y-32.8359
G1 X57.4965 Y-33.0152
G1 X57.2531 Y-33.1813
G1 X56.9968 Y-33.3388
G1 X56.7426 Y-33.4782
G1 X56.4733 Y-33.6098
G1 X56.2033 Y-33.7261
G1 X55.9247 Y-33.8310
G1 X55.6448 Y-33.9212
G1 X55.3570 Y-33.9987
G1 X55.0692 Y-34.0619
G1 X54.7787 Y-34.1109
G1 X54.4787 Y-34.1470
G1 X54.1823 Y-34.1683
G1 X53.8884 Y-34.1744
G1 X53.5838 Y-34.1663
G1 X53.2785 Y-34.1429
G1 X52.9836 Y-34.1058
G1 X52.6849 Y-34.0525
G1 X52.3809 Y-33.9827
G1 X52.0786 Y-33.8973
G1 X51.7868 Y-33.7983
G1 X51.4876 Y-33.6796
G1 X51.2008 Y-33.5486
G1 X50.9179 Y-33.4020
G1 X50.6524 Y-33.2471
G1 X50.3939 Y-33.0779
G1 X50.1477 Y-32.8986
G1 X49.9115 Y-32.7081
G1 X49.6890 Y-32.5087
G1 X49.4721 Y-32.2951
G1 X49.2686 Y-32.0739
G1 X49.0789 Y-31.8465
G1 X48.9003 Y-31.6100
G1 X48.7335 Y-31.3647
G1 X48.5790 Y-31.1132
G1 X48.4348 Y-30.8498
G1 X48.3057 Y-30.5857
G1 X48.1904 Y-30.3172
G1 X48.0845 Y-30.0352
G1 X47.9948 Y-29.7561
G1 X47.9176 Y-29.4714
G1 X47.8536 Y-29.1780
G1 X47.8051 Y-28.8902
G1 X47.7688 Y-28.5882
G1 X47.7484 Y-28.2979
G1 X47.7416 Y-27.9936
G1 X47.7500 Y-27.7007
G1 X47.7736 Y-27.3909
G1 X47.8107 Y-27.0957
G1 X47.8648 Y-26.7934
G1 X47.9334 Y-26.4947
G1 X48.0182 Y-26.1943
G1 X48.1198 Y-25.8956
G1 X48.2349 Y-25.6047
G1 X48.3695 Y-25.3098
G1 X48.5122 Y-25.0342
G1 X48.6692 Y-24.7660
G1 X48.8384 Y-24.5074
G1 X49.0172 Y-24.2611
G1 X49.2079 Y-24.0254
G1 X49.4093 Y-23.7993
G1 X49.6219 Y-23.5836
G1 X49.8424 Y-23.3804
G1 X50.0677 Y-23.1925
G1 X50.3080 Y-23.0109
G1 X50.5503 Y-22.8458
G1 X50.8043 Y-22.6898
G1 X51.0682 Y-22.5445
G1 X51.3268 Y-22.4178
G1 X51.6004 Y-22.3002
G1 X51.8828 Y-22.1940
G1 X52.1569 Y-22.1056
G1 X52.4485 Y-22.0271
G1 X52.7345 Y-21.9644
G1 X53.0281 Y-21.9149
G1 X53.3232 Y-21.8793
G1 X53.6222 Y-21.8580
G1 X53.9179 Y-21.8511
G1 X54.2242 Y-21.8595
G1 X54.5170 Y-21.8818
G1 X54.8221 Y-21.9207
G1 X55.1256 Y-21.9746
G1 X55.4243 Y-22.0431
G1 X55.7185 Y-22.1264
G1 X56.0212 Y-22.2288
G1 X56.3154 Y-22.3456
G1 X56.6042 Y-22.4772
G1 X56.8856 Y-22.6230
G1 X57.1533 Y-22.7795
G1 X57.4088 Y-22.9471
G1 X57.6590 Y-23.1292
G1 X57.8914 Y-23.3167
G1 X58.1157 Y-23.5174
G1 X58.3324 Y-23.7305
G1 X58.5353 Y-23.9512
G1 X58.7251 Y-24.1790
G1 X58.9046 Y-24.4170
G1 X59.0705 Y-24.6609
G1 X59.2272 Y-24.9159
G1 X59.3669 Y-25.1711
G1 X59.5000 Y-25.4442
G1 X59.6148 Y-25.7106
G1 X59.7179 Y-25.9865
G1 X59.8104 Y-26.2735
G1 X59.8861 Y-26.5539
G1 X59.9501 Y-26.8478
G1 X59.9991 Y-27.1389
G1 X60.0347 Y-27.4356
G1 X60.0555 Y-27.7310
G1 X60.0616 Y-28.0281
G1 X60.0535 Y-28.3357
G1 X60.0311 Y-28.6286
G1 X59.9923 Y-28.9344
G1 X59.9382 Y-29.2374
G1 X59.8703 Y-29.5333
G1 X59.7858 Y-29.8308
G1 X59.6824 Y-30.1348
G1 X59.5686 Y-30.4234
G1 X59.4337 Y-30.7190
; Retract
G1 Z2.5400 F2540

; Path 4
; Rapid to initial position
G1 X39.4876 Y-28.5760 F2540
G1 Z0.0000
; plunge
G1 Z-0.3000 F127
; cut
G1 X39.4909 Y-28.4704 F60
G1 X39.3880 Y-23.4254
G1 X39.3240 Y-19.6197
G1 X39.3243 Y-19.6197
G1 X39.3083 Y-18.1275
G1 X39.3093 Y-17.1694
G1 X39.3278 Y-16.2227
G1 X39.3248 Y-15.6987
G1 X39.3238 Y-15.6619
G1 X39.3004 Y-15.1150
G1 X39.2974 Y-15.0668
G1 X39.2463 Y-14.5077
G1 X39.2382 Y-14.4422
G1 X39.1493 Y-13.8808
G1 X39.1330 Y-13.8006
G1 X38.9981 Y-13.2471
G1 X38.9781 Y-13.1762
G1 X38.8907 Y-12.9060
G1 X38.8724 Y-12.8542
G1 X38.7706 Y-12.5898
G1 X38.7482 Y-12.5362
G1 X38.6418 Y-12.3015
G1 X38.6154 Y-12.2479
G1 X38.4955 Y-12.0206
G1 X38.4637 Y-11.9649
G1 X38.3289 Y-11.7447
G1 X38.2902 Y-11.6863
G1 X38.1399 Y-11.4755
G1 X38.0959 Y-11.4181
G1 X37.9291 Y-11.2166
G1 X37.8798 Y-11.1615
G1 X37.6964 Y-10.9708
G1 X37.6380 Y-10.9149
G1 X37.4358 Y-10.7361
G1 X37.3779 Y-10.6883
G1 X37.1579 Y-10.5214
G1 X37.1084 Y-10.4864
G1 X36.6293 Y-10.1674
G1 X36.0210 Y-9.7912
G1 X35.9865 Y-9.7709
G1 X35.2288 Y-9.3434
G1 X35.1889 Y-9.3221
G1 X34.2897 Y-8.8669
G1 X34.2572 Y-8.8511
G1 X33.7332 Y-8.6098
G1 X33.1760 Y-8.3708
G1 X32.5854 Y-8.1366
G1 X31.9636 Y-7.9108
G1 X31.3103 Y-7.6959
G1 X30.6266 Y-7.4955
G1 X29.9154 Y-7.3134
G1 X29.2120 Y-7.1587
G1 X29.1755 Y-7.1514
G1 X28.4475 Y-7.0195
G1 X28.4086 Y-7.0132
G1 X27.6565 Y-6.9073
G1 X27.6167 Y-6.9027
G1 X26.8422 Y-6.8252
G1 X26.7995 Y-6.8217
G1 X26.0030 Y-6.7762
G1 X25.9596 Y-6.7747
G1 X25.1422 Y-6.7638
G1 X25.0972 Y-6.7643
G1 X24.2606 Y-6.7907
G1 X24.2136 Y-6.7932
G1 X23.3578 Y-6.8605
G1 X23.3103 Y-6.8654
G1 X22.4371 Y-6.9764
G1 X22.3891 Y-6.9837
G1 X21.4991 Y-7.1410
G1 X21.4506 Y-7.1509
G1 X20.5458 Y-7.3574
G1 X20.4968 Y-7.3698
G1 X19.5768 Y-7.6294
G1 X19.5288 Y-7.6441
G1 X18.5956 Y-7.9588
G1 X18.5481 Y-7.9764
G1 X17.6025 Y-8.3495
G1 X17.5560 Y-8.3690
G1 X16.5989 Y-8.8036
G1 X16.5542 Y-8.8255
G1 X15.5872 Y-9.3241
G1 X15.5438 Y-9.3477
G1 X14.5672 Y-9.9141
G1 X14.5255 Y-9.9395
G1 X13.5758 Y-10.5540
G1 X13.5336 Y-10.5829
G1 X12.6446 Y-11.2248
G1 X12.6042 Y-11.2558
G1 X11.7744 Y-11.9217
G1 X11.7351 Y-11.9548
G1 X10.9619 Y-12.6436
G1 X10.9240 Y-12.6794
G1 X10.2067 Y-13.3888
G1 X10.1707 Y-13.4264
G1 X9.5072 Y-14.1547
G1 X9.4734 Y-14.1935
G1 X8.8621 Y-14.9382
G1 X8.8308 Y-14.9784
G1 X8.2697 Y-15.7376
G1 X8.2408 Y-15.7790
G1 X7.7287 Y-16.5504
G1 X7.7025 Y-16.5918
G1 X7.2370 Y-17.3736
G1 X7.2133 Y-17.4158
G1 X6.7932 Y-18.2060
G1 X6.7721 Y-18.2476
G1 X6.3952 Y-19.0444
G1 X6.3764 Y-19.0868
G1 X6.0422 Y-19.8874
G1 X6.0261 Y-19.9283
G1 X5.7315 Y-20.7312
G1 X5.7175 Y-20.7716
G1 X5.4613 Y-21.5748
G1 X5.4493 Y-21.6151
G1 X5.2304 Y-22.4165
G1 X5.2207 Y-22.4546
G1 X5.0361 Y-23.2522
G1 X5.0282 Y-23.2903
G1 X4.8773 Y-24.0812
G1 X4.8710 Y-24.1181
G1 X4.7516 Y-24.9011
G1 X4.7468 Y-24.9370
G1 X4.6540 Y-25.7449
G1 X4.5908 Y-26.5389
G1 X4.5547 Y-27.3192
G1 X4.5451 Y-28.0822
G1 X4.5596 Y-28.8252
G1 X4.5961 Y-29.5491
G1 X4.6535 Y-30.2486
G1 X4.7297 Y-30.9248
G1 X4.8235 Y-31.5737
G1 X4.9324 Y-32.1935
G1 X5.0556 Y-32.7863
G1 X5.1915 Y-33.3451
G1 X5.3279 Y-33.8376
G1 X5.3401 Y-33.8785
G1 X5.4945 Y-34.3558
G1 X5.5093 Y-34.3980
G1 X5.6901 Y-34.8818
G1 X5.7051 Y-34.9194
G1 X5.9103 Y-35.4076
G1 X5.9248 Y-35.4406
G1 X6.1666 Y-35.9611
G1 X6.4295 Y-36.4820
G1 X6.6972 Y-36.9761
G1 X6.7168 Y-37.0106
G1 X7.3028 Y-37.9961
G1 X7.3276 Y-38.0357
G1 X7.9695 Y-39.0088
G1 X7.9924 Y-39.0421
G1 X8.6754 Y-39.9918
G1 X8.6972 Y-40.0210
G1 X9.4292 Y-40.9633
G1 X10.1747 Y-41.8597
G1 X10.9205 Y-42.7007
G1 X11.6535 Y-43.4769
G1 X12.3609 Y-44.1787
G1 X13.0005 Y-44.7716
G1 X13.0325 Y-44.8000
G1 X13.6164 Y-45.2966
G1 X13.6594 Y-45.3311
G1 X14.1737 Y-45.7218
G1 X14.2413 Y-45.7690
G1 X14.6713 Y-46.0428
G1 X14.7612 Y-46.0936
G1 X14.9400 Y-46.1830
G1 X15.0050 Y-46.2128
G1 X15.0386 Y-46.2260
G1 X15.1915 Y-46.2829
G1 X15.2591 Y-46.3052
G1 X15.3088 Y-46.3184
G1 X15.6195 Y-46.3923
G1 X15.6865 Y-46.4058
G1 X16.0553 Y-46.4673
G1 X16.1011 Y-46.4739
G1 X16.5524 Y-46.5272
G1 X17.0480 Y-46.5696
G1 X18.0909 Y-46.6227
G1 X19.1892 Y-46.6453

; Leave gap to keep on base
; Retract
;G1 Z2.5400 F2540

G1 X20.2801 Y-46.6458
G1 X21.2989 Y-46.6311
G1 X22.8265 Y-46.5910

; Path 4.1
; Rapid to initial position
;G1 X22.8265 Y-46.5910 F2540
;G1 Z0.0000
; plunge
;G1 Z-0.3000 F127
; cut
G1 X23.3794 Y-46.5910 F60
G1 X24.0193 Y-46.6110
G1 X24.7035 Y-46.6281
G1 X24.7421 Y-46.6283
G1 X25.4310 Y-46.6189
G1 X25.4828 Y-46.6169
G1 X25.8196 Y-46.5948
G1 X25.8674 Y-46.5905
G1 X26.1945 Y-46.5531
G1 X26.2570 Y-46.5440
G1 X26.5702 Y-46.4881
G1 X26.6484 Y-46.4708
G1 X26.9433 Y-46.3934
G1 X27.0355 Y-46.3641
G1 X27.3101 Y-46.2628
G1 X27.3761 Y-46.2359
G1 X27.4226 Y-46.2133
G1 X27.6715 Y-46.0847
G1 X27.7338 Y-46.0499
G1 X27.7975 Y-46.0075
G1 X28.0177 Y-45.8488
G1 X28.0741 Y-45.8051
G1 X28.1485 Y-45.7360
G1 X28.3362 Y-45.5437
G1 X28.3842 Y-45.4911
G1 X28.4323 Y-45.4294
G1 X28.5836 Y-45.2191
G1 X28.6233 Y-45.1599
G1 X28.6459 Y-45.1213
G1 X28.7632 Y-44.9105
G1 X28.7957 Y-44.8470
G1 X28.8138 Y-44.8056
G1 X28.9004 Y-44.5958
G1 X28.9253 Y-44.5290
G1 X28.9372 Y-44.4901
G1 X28.9971 Y-44.2813
G1 X29.0200 Y-44.1833
G1 X29.0573 Y-43.9768
G1 X29.0690 Y-43.8922
G1 X29.0881 Y-43.6885
G1 X29.0924 Y-43.5902
G1 X29.0904 Y-43.1932
G1 X29.0878 Y-43.1287
G1 X29.0396 Y-42.4363
G1 X29.0398 Y-42.3492
G1 X29.0449 Y-42.2923
G1 X29.0477 Y-42.2788
G1 X29.0639 Y-42.2366
G1 X29.2618 Y-41.7840
G1 X29.2844 Y-41.7276
G1 X29.4409 Y-41.3009
G1 X29.4543 Y-41.2603
G1 X29.4706 Y-41.2557
G1 X29.9885 Y-41.0975
G1 X30.0276 Y-41.0848
G1 X30.5427 Y-40.9039
G1 X30.5836 Y-40.8884
G1 X31.0970 Y-40.6827
G1 X31.1333 Y-40.6674
G1 X31.5658 Y-40.4739
G1 X31.5994 Y-40.4581
G1 X32.0210 Y-40.2504
G1 X32.0533 Y-40.2336
G1 X32.4640 Y-40.0124
G1 X32.4957 Y-39.9946
G1 X32.8958 Y-39.7599
G1 X32.9263 Y-39.7411
G1 X33.3154 Y-39.4937
G1 X33.3474 Y-39.4726
G1 X33.7525 Y-39.1919
G1 X34.1183 Y-38.9202
G1 X34.1473 Y-38.8978
G1 X34.5013 Y-38.6141
G1 X34.5298 Y-38.5905
G1 X34.8976 Y-38.2717
G1 X35.2278 Y-37.9659
G1 X35.2537 Y-37.9412
G1 X35.5714 Y-37.6250
G1 X35.5963 Y-37.5994
G1 X35.9258 Y-37.2463
G1 X36.2412 Y-36.8836
G1 X36.5219 Y-36.5379
G1 X36.5442 Y-36.5095
G1 X36.8323 Y-36.1264
G1 X37.1058 Y-35.7350
G1 X37.3664 Y-35.3337
G1 X37.6110 Y-34.9255
G1 X37.8262 Y-34.5389
G1 X37.8430 Y-34.5074
G1 X38.0591 Y-34.0832
G1 X38.2598 Y-33.6532
G1 X38.4467 Y-33.2146
G1 X38.6182 Y-32.7693
G1 X38.7728 Y-32.3212
G1 X38.9037 Y-31.8996
G1 X38.9138 Y-31.8651
G1 X39.0378 Y-31.4056
G1 X39.1391 Y-30.9750
G1 X39.1470 Y-30.9392
G1 X39.2384 Y-30.4724
G1 X39.3149 Y-29.9994
G1 X39.3708 Y-29.5585
G1 X39.3746 Y-29.5229
G1 X39.4172 Y-29.0464
G1 X39.4292 Y-28.8359
G1 X39.4467 Y-28.7856
G1 X39.4652 Y-28.7167
G1 X39.4790 Y-28.6466
G1 X39.4876 Y-28.5760
; Retract
G1 Z2.5400 F2540

; Path 5
; Rapid to initial position
G1 X31.8229 Y-28.2445 F2540
G1 Z0.0000
; plunge
G1 Z-0.3000 F127
; cut
G1 X31.8023 Y-28.5397 F60
G1 X31.7673 Y-28.8333
G1 X31.7175 Y-29.1259
G1 X31.6542 Y-29.4165
G1 X31.5770 Y-29.7030
G1 X31.4876 Y-29.9801
G1 X31.3814 Y-30.2644
G1 X31.2671 Y-30.5295
G1 X31.1346 Y-30.8011
G1 X30.9949 Y-31.0556
G1 X30.8381 Y-31.3113
G1 X30.6700 Y-31.5580
G1 X30.4919 Y-31.7939
G1 X30.3002 Y-32.0241
G1 X30.0990 Y-32.2438
G1 X29.8874 Y-32.4515
G1 X29.6578 Y-32.6568
G1 X29.4259 Y-32.8437
G1 X29.1757 Y-33.0258
G1 X28.9202 Y-33.1935
G1 X28.6525 Y-33.3499
G1 X28.3710 Y-33.4960
G1 X28.0850 Y-33.6263
G1 X27.7853 Y-33.7449
G1 X27.4876 Y-33.8458
G1 X27.1892 Y-33.9301
G1 X26.8925 Y-33.9987
G1 X26.5908 Y-34.0520
G1 X26.2872 Y-34.0906
G1 X25.9895 Y-34.1130
G1 X25.6840 Y-34.1216
G1 X25.3896 Y-34.1150
G1 X25.0883 Y-34.0934
G1 X24.7960 Y-34.0586
G1 X24.5036 Y-34.0088
G1 X24.2171 Y-33.9458
G1 X23.9248 Y-33.8671
G1 X23.6454 Y-33.7769
G1 X23.3675 Y-33.6730
G1 X23.0990 Y-33.5575
G1 X22.8333 Y-33.4274
G1 X22.5745 Y-33.2849
G1 X22.3190 Y-33.1285
G1 X22.0723 Y-32.9603
G1 X21.8382 Y-32.7838
G1 X21.6080 Y-32.5912
G1 X21.3863 Y-32.3875
G1 X21.1785 Y-32.1765
G1 X20.9768 Y-31.9509
G1 X20.7848 Y-31.7124
G1 X20.6065 Y-31.4676
G1 X20.4379 Y-31.2097
G1 X20.2796 Y-30.9392
G1 X20.1386 Y-30.6667
G1 X20.0040 Y-30.3720
G1 X19.8874 Y-30.0777
G1 X19.7856 Y-29.7774
G1 X19.7018 Y-29.4805
G1 X19.6332 Y-29.1838
G1 X19.5798 Y-28.8821
G1 X19.5407 Y-28.5753
G1 X19.5184 Y-28.2826
G1 X19.5097 Y-27.9748
G1 X19.5163 Y-27.6781
G1 X19.5374 Y-27.3799
G1 X19.5722 Y-27.0871
G1 X19.6218 Y-26.7929
G1 X19.6847 Y-26.5064
G1 X19.7630 Y-26.2158
G1 X19.8524 Y-25.9372
G1 X19.9575 Y-25.6558
G1 X20.0718 Y-25.3906
G1 X20.2037 Y-25.1209
G1 X20.3479 Y-24.8575
G1 X20.4981 Y-24.6126
G1 X20.6705 Y-24.3594
G1 X20.8463 Y-24.1264
G1 X21.0378 Y-23.8966
G1 X21.2390 Y-23.6779
G1 X21.4549 Y-23.4650
G1 X21.6786 Y-23.2651
G1 X21.9159 Y-23.0739
G1 X22.1633 Y-22.8938
G1 X22.4193 Y-22.7259
G1 X22.6870 Y-22.5694
G1 X22.9631 Y-22.4264
G1 X23.2583 Y-22.2918
G1 X23.5524 Y-22.1752
G1 X23.8514 Y-22.0739
G1 X24.1498 Y-21.9895
G1 X24.4465 Y-21.9210
G1 X24.7482 Y-21.8676
G1 X25.0513 Y-21.8290
G1 X25.3497 Y-21.8067
G1 X25.6550 Y-21.7985
G1 X25.9494 Y-21.8046
G1 X26.2468 Y-21.8260
G1 X26.5458 Y-21.8620
G1 X26.8369 Y-21.9111
G1 X27.1231 Y-21.9740
G1 X27.4132 Y-22.0528
G1 X27.6893 Y-22.1417
G1 X27.9720 Y-22.2474
G1 X28.2387 Y-22.3627
G1 X28.5120 Y-22.4963
G1 X28.7652 Y-22.6352
G1 X29.0172 Y-22.7899
G1 X29.2672 Y-22.9603
G1 X29.5021 Y-23.1379
G1 X29.7297 Y-23.3281
G1 X29.9535 Y-23.5339
G1 X30.1625 Y-23.7462
G1 X30.3616 Y-23.9695
G1 X30.5524 Y-24.2057
G1 X30.7355 Y-24.4577
G1 X30.9004 Y-24.7094
G1 X31.0586 Y-24.9806
G1 X31.2039 Y-25.2606
G1 X31.3362 Y-25.5509
G1 X31.4531 Y-25.8450
G1 X31.5539 Y-26.1427
G1 X31.6375 Y-26.4378
G1 X31.7073 Y-26.7409
G1 X31.7604 Y-27.0406
G1 X31.7988 Y-27.3423
G1 X31.8216 Y-27.6423
G1 X31.8298 Y-27.9448
G1 X31.8229 Y-28.2445
; Retract
G1 Z2.5400 F2540

; Path 6
; Rapid to initial position
G1 X11.7287 Y-34.7853 F2540
G1 Z0.0000
; plunge
G1 Z-0.3000 F127
; cut
G1 X11.7406 Y-34.8518 F60
G1 X11.7427 Y-34.9189
G1 X11.7351 Y-34.9877
G1 X11.7180 Y-35.0528
G1 X11.6919 Y-35.1142
G1 X11.6566 Y-35.1724
G1 X11.6042 Y-35.2351
G1 X11.5778 Y-35.2598
G1 X11.5611 Y-35.2725
G1 X11.4610 Y-35.3268
G1 X11.3772 Y-35.3530
G1 X11.2888 Y-35.3626
G1 X11.1999 Y-35.3553
G1 X11.1145 Y-35.3314
G1 X11.0150 Y-35.2803
G1 X10.9929 Y-35.2646
G1 X10.9578 Y-35.2339
G1 X10.9235 Y-35.1968
G1 X10.9093 Y-35.1777
G1 X10.8539 Y-35.0764
G1 X10.8265 Y-34.9888
G1 X10.8168 Y-34.9009
G1 X10.8240 Y-34.8117
G1 X10.8486 Y-34.7233
G1 X10.8999 Y-34.6215
G1 X10.9126 Y-34.6039
G1 X10.9441 Y-34.5679
G1 X10.9799 Y-34.5346
G1 X10.9964 Y-34.5222
G1 X11.0980 Y-34.4668
G1 X11.1813 Y-34.4406
G1 X11.2695 Y-34.4310
G1 X11.3566 Y-34.4381
G1 X11.4414 Y-34.4622
G1 X11.5458 Y-34.5153
G1 X11.5641 Y-34.5285
G1 X11.5834 Y-34.5453
G1 X11.6581 Y-34.6344
G1 X11.7099 Y-34.7297
G1 X11.7287 Y-34.7853
; Retract
G1 Z2.5400 F2540
M2
