<?xml version="1.0" encoding="UTF-8" standalone="no"?>
<!-- Created with Inkscape (http://www.inkscape.org/) -->

<svg
   id="svg3882"
   version="1.1"
   viewBox="0 0 80.0 50.0"
   height="50.0mm"
   width="80.0mm"
   inkscape:version="1.3 (0e150ed, 2023-07-21)"
   sodipodi:docname="mirrors.prep.svg"
   xmlns:inkscape="http://www.inkscape.org/namespaces/inkscape"
   xmlns:sodipodi="http://sodipodi.sourceforge.net/DTD/sodipodi-0.dtd"
   xmlns="http://www.w3.org/2000/svg"
   xmlns:svg="http://www.w3.org/2000/svg"
   xmlns:rdf="http://www.w3.org/1999/02/22-rdf-syntax-ns#"
   xmlns:cc="http://creativecommons.org/ns#"
   xmlns:dc="http://purl.org/dc/elements/1.1/">
  <defs
     id="defs3876" />
  <sodipodi:namedview
     id="base"
     pagecolor="#ffffff"
     bordercolor="#666666"
     borderopacity="1.0"
     inkscape:pageopacity="0.0"
     inkscape:pageshadow="2"
     inkscape:zoom="3.4803871"
     inkscape:cx="154.14952"
     inkscape:cy="91.225484"
     inkscape:document-units="mm"
     inkscape:current-layer="g3921"
     showgrid="true"
     inkscape:window-width="1512"
     inkscape:window-height="916"
     inkscape:window-x="2560"
     inkscape:window-y="38"
     inkscape:window-maximized="1"
     borderlayer="true"
     inkscape:lockguides="false"
     inkscape:showpageshadow="2"
     inkscape:pagecheckerboard="0"
     inkscape:deskcolor="#d1d1d1">
    <inkscape:grid
       id="grid3885"
       units="mm"
       type="xygrid"
       empspacing="1"
       spacingy="2.54"
       spacingx="2.54"
       originx="0"
       originy="0"
       visible="true" />
    <inkscape:grid
       spacingx="2.54"
       spacingy="2.54"
       empspacing="1"
       type="xygrid"
       units="mm"
       id="grid3962"
       originx="0"
       originy="0"
       visible="true" />
  </sodipodi:namedview>
  <metadata
     id="metadata3879">
    <rdf:RDF>
      <cc:Work
         rdf:about="">
        <dc:format>image/svg+xml</dc:format>
        <dc:type
           rdf:resource="http://purl.org/dc/dcmitype/StillImage" />
      </cc:Work>
    </rdf:RDF>
  </metadata>
  <g
     id="g3891"
     sodipodi:insensitive="true"
     inkscape:groupmode="layer"
     inkscape:label="[fixed] BG"
     style="display:inline">
    <rect
       id="rect3889"
       style="display:inline;fill:#ffffff;fill-opacity:1;stroke:none"
       height="50"
       width="80"
       y="0"
       x="0" />
  </g>
  <g
     id="g3921"
     inkscape:groupmode="layer"
     inkscape:label="Edge.Cuts"
     style="display:inline">
    <path
       inkscape:connector-curvature="0"
       inkscape:label="Back R"
       id="path15-0"
       style="clip-rule:evenodd;display:inline;fill:#00ff00;fill-opacity:1;fill-rule:evenodd;stroke:#000000;stroke-width:0.0278928;image-rendering:optimizeQuality;shape-rendering:geometricPrecision;text-rendering:geometricPrecision"
       d="m 37.838085,12.94948 -0.106338,-0.234412 -0.120199,-0.22759 -0.134872,-0.21981 -0.150358,-0.211072 -0.166654,-0.201379 -0.183765,-0.190729 -0.201686,-0.17912 -0.220419,-0.166556 -0.450231,-0.30048 L 35.495455,10.642491 34.737799,10.215057 33.838925,9.7598048 33.339134,9.5291746 32.807162,9.3005037 32.244049,9.0767636 31.650838,8.8609257 31.02857,8.6559615 30.378285,8.4648422 29.701025,8.2905394 28.99783,8.1360246 28.269743,8.004269 27.517804,7.8982441 l -0.77475,-0.077323 -0.796519,-0.045649 -0.817247,-0.011004 -0.836934,0.026612 -0.85558,0.0672 -0.873185,0.1107594 -0.889749,0.1572901 -0.905271,0.2067921 -0.919752,0.2592657 -0.933192,0.3147107 -0.945591,0.373127 -0.956948,0.4345149 -0.967265,0.498874 -0.976541,0.566205 -0.949584,0.614766 -0.888967,0.641527 -0.830054,0.666239 -0.772847,0.688905 -0.717343,0.709524 -0.663546,0.728095 -0.6114535,0.74462 -0.5610653,0.759096 -0.5123825,0.771526 -0.4654046,0.781908 -0.4201316,0.790244 -0.3765638,0.796531 -0.3347007,0.800772 -0.2945427,0.802966 -0.2560896,0.803113 -0.2193416,0.801211 -0.1842984,0.797263 -0.1509602,0.791268 -0.1193271,0.783226 -0.089399,0.773136 -0.061176,0.760998 -0.034657,0.746815 -0.00984,0.730583 0.013264,0.712305 0.034668,0.691978 0.054366,0.669606 0.07236,0.645185 0.088648,0.618718 0.1032317,0.590203 0.1161104,0.559641 0.1272839,0.527032 0.1367526,0.492375 0.1545686,0.477754 0.1807037,0.483668 0.2050929,0.488281 0.2277357,0.491594 0.2486324,0.493609 0.2677831,0.494324 0.586033,0.985593 0.6416814,0.972858 0.6833604,0.949726 0.7110698,0.916197 0.724811,0.872273 0.724581,0.817952 0.710384,0.753235 0.682215,0.678121 0.640079,0.592611 0.583973,0.496704 0.513898,0.390401 0.429852,0.273702 0.179045,0.08984 0.152794,0.05677 0.310515,0.07384 0.368957,0.0615 0.418985,0.05014 0.460602,0.03975 1.012399,0.0522 1.077909,0.02229 1.076116,1.49e-4 1.007021,-0.01422 1.537545,-0.04043 0.584481,4.6e-5 0.649393,0.02034 0.684248,0.01717 0.689047,-0.0095 0.33693,-0.02205 0.326859,-0.03751 0.31303,-0.0559 0.295444,-0.07722 0.274102,-0.101479 0.249001,-0.128668 0.220145,-0.158789 0.187531,-0.191844 0.151775,-0.210637 0.1172,-0.21065 0.08662,-0.209981 0.06004,-0.208629 0.03746,-0.206594 0.01888,-0.203875 -0.002,-0.396865 -0.05101,-0.731058 7.74e-4,-0.165725 0.01418,-0.157542 0.03159,-0.148677 0.05299,-0.139129 0.206972,-0.472657 0.156171,-0.427034 0.157367,-0.522419 0.519186,-0.134851 0.51771,-0.157781 0.515552,-0.181291 0.512712,-0.205379 0.432634,-0.193653 0.421894,-0.207728 0.410994,-0.221405 0.399932,-0.234687 0.38871,-0.247572 0.377327,-0.26006 0.365782,-0.272151 0.354078,-0.283848 0.342212,-0.295146 0.330186,-0.306048 0.317998,-0.316554 0.30565,-0.326663 0.29314,-0.336376 0.28047,-0.345693 0.26764,-0.354612 0.254647,-0.363135 0.241495,-0.371262 0.228181,-0.378993 0.214707,-0.386326 0.201071,-0.393263 0.187276,-0.399804 0.173318,-0.405948 0.1592,-0.411696 0.144921,-0.417047 0.130482,-0.422001 0.115882,-0.42656 0.101119,-0.430721 0.0862,-0.434487 0.07111,-0.437855 0.05587,-0.440827 0.04046,-0.443403 0.0249,-0.445582 0.04733,-0.05273 -0.102824,-5.045426 -0.06407,-3.815072 -0.0164,-1.503877 0.0012,-0.957914 0.01878,-0.940083 -0.0032,-0.524216 -0.02306,-0.546749 -0.05161,-0.559096 -0.08881,-0.561256 -0.134658,-0.553229 -0.08722,-0.270421 -0.101932,-0.264594 7e-6,-1.4e-5 m -5.581451,12.208537 0.135683,0.342402 0.116946,0.345148 0.09845,0.347301 0.08018,0.348866 0.06215,0.349839 0.04436,0.350223 0.0268,0.350015 0.0095,0.349219 -0.0076,0.34783 -0.02446,0.345852 -0.04107,0.343283 -0.05745,0.340125 -0.07359,0.336375 -0.0895,0.332036 -0.105166,0.327105 -0.1206,0.321585 -0.135798,0.315474 -0.15076,0.308773 -0.165486,0.301482 -0.179976,0.2936 -0.19423,0.285127 -0.208248,0.276065 -0.222031,0.266411 -0.235576,0.256169 -0.248887,0.245334 -0.261961,0.233911 -0.2748,0.221895 -0.287402,0.209291 -0.299768,0.196096 -0.311899,0.18231 -0.323793,0.167934 -0.335452,0.152968 -0.342754,0.135819 -0.345463,0.117043 -0.347584,0.0985 -0.349115,0.08021 -0.350058,0.06215 -0.35041,0.04433 -0.350175,0.02674 -0.34935,0.0094 -0.347936,-0.0077 -0.345932,-0.02457 -0.34334,-0.04119 -0.340158,-0.05758 -0.336387,-0.07373 -0.332028,-0.08963 -0.327078,-0.105305 -0.321541,-0.120735 -0.315413,-0.135925 -0.308697,-0.150879 -0.301391,-0.165591 -0.293497,-0.180066 -0.285012,-0.1943 -0.27594,-0.208297 -0.266278,-0.222053 -0.256027,-0.235572 -0.245187,-0.248851 -0.233757,-0.26189 -0.221738,-0.274691 -0.209131,-0.287254 -0.195934,-0.299575 -0.182148,-0.31166 -0.167773,-0.323504 -0.152809,-0.33511 -0.135835,-0.34276 -0.117089,-0.345482 -0.09858,-0.347615 -0.0803,-0.349158 -0.06227,-0.350111 -0.04446,-0.350475 -0.0269,-0.350249 -0.0096,-0.349434 0.0075,-0.348028 0.02438,-0.346034 0.041,-0.343449 0.05739,-0.340274 0.07353,-0.336512 0.08945,-0.332157 0.105119,-0.327215 0.120559,-0.321682 0.135762,-0.315559 0.150728,-0.308848 0.165459,-0.301546 0.179952,-0.293655 0.194211,-0.285173 0.208231,-0.276104 0.222017,-0.266443 0.235566,-0.256193 0.248878,-0.245354 0.261955,-0.233924 0.274795,-0.221906 0.287399,-0.209298 0.299766,-0.196099 0.311898,-0.182312 0.323793,-0.167935 0.335451,-0.152967 0.342754,-0.135819 0.345463,-0.117042 0.347585,-0.0985 0.349117,-0.0802 0.35006,-0.06214 0.350416,-0.04432 0.350181,-0.02673 0.349358,-0.0094 0.347946,0.0077 0.345946,0.0246 0.343356,0.04123 0.340178,0.05763 0.336411,0.07378 0.332055,0.0897 0.32711,0.105379 0.321577,0.12082 0.315455,0.136023 0.308743,0.150987 0.301443,0.165713 0.293555,0.180202 0.285077,0.194451 0.27601,0.208462 0.266356,0.222235 0.256111,0.235769 0.245278,0.249066 0.233857,0.262124 0.221846,0.274944 0.209246,0.287525 0.196059,0.299868 0.182281,0.311973 0.167916,0.32384 0.152961,0.335467 v 0 m -19.626478,9.169806 0.07001,0.207628 0.03811,0.212115 0.0068,0.213205 -0.02378,0.210897 -0.05378,0.205194 -0.08315,0.196093 -0.111878,0.183595 -0.139977,0.167701 -0.1098,0.10233 -0.117302,0.08897 -0.252941,0.137803 -0.270446,0.0842 -0.279616,0.03049 -0.280451,-0.02333 -0.272951,-0.07725 -0.257118,-0.131279 -0.120017,-0.08593 -0.112933,-0.09948 -0.102403,-0.110353 -0.0891,-0.117842 -0.1382305,-0.253974 -0.084824,-0.271393 -0.031285,-0.280455 0.022386,-0.281158 0.07619,-0.273505 0.1301265,-0.257493 0.08533,-0.12013 0.09886,-0.112993 0.109744,-0.102399 0.117253,-0.08904 0.25287,-0.137956 0.270405,-0.08436 0.279607,-0.03065 0.280473,0.02317 0.273003,0.0771 0.257199,0.131142 0.120067,0.08587 0.112991,0.09942 0.0013,0.0013 0.18872,0.224954 0.140507,0.257931 -1.7e-5,-1.37e-4" />
    <path
       inkscape:connector-curvature="0"
       inkscape:label="Back L"
       sodipodi:nodetypes="csssscsccsccsssssccscccccscccsc"
       d="m 66.942439,34.38088 -0.07001,0.207629 -0.03811,0.212115 -0.0068,0.213205 0.02378,0.210898 0.05378,0.205194 0.08315,0.196092 0.111879,0.183595 0.139978,0.1677 0.220481,0.186425 0.25027,0.138301 0.272419,0.08689 0.28693,0.03218 0.287817,-0.02482 0.275008,-0.07988 0.254463,-0.131852 0.226181,-0.180715 0.186624,-0.221546 0.138721,-0.251297 0.08751,-0.273379 0.03299,-0.287795 -0.02389,-0.28854 -0.07881,-0.275561 -0.13068,-0.254831 -0.179512,-0.226348 -0.220381,-0.186563 -0.250198,-0.138454 -0.272377,-0.08705 -0.28692,-0.03235 -0.287842,0.02462 -0.275064,0.07974 -0.254545,0.131733 -0.22629,0.180609 -0.0013,0.0012 -0.188719,0.224954 -0.140507,0.257933 v 0 l 1.6e-5,-2.8e-5 m -15.844989,0.220249 0.342754,0.13582 0.345463,0.117042 0.347583,0.0985 0.349116,0.08021 0.350057,0.06215 0.350411,0.04433 0.350175,0.02674 0.349349,0.0094 0.347936,-0.0077 0.345932,-0.02457 0.343339,-0.04119 0.340158,-0.05758 0.336388,-0.07373 0.332027,-0.08964 0.327079,-0.105305 0.32154,-0.120734 0.315413,-0.135926 0.308697,-0.150878 0.301391,-0.165592 0.293496,-0.180065 0.285013,-0.194301 0.27594,-0.208296 0.266278,-0.222054 0.256027,-0.235572 0.245186,-0.24885 0.233757,-0.261891 0.221739,-0.274691 0.209131,-0.287253 0.195934,-0.299576 0.182148,-0.311659 0.167773,-0.323504 0.152809,-0.33511 0.135836,-0.34276 0.117088,-0.345482 0.09858,-0.347615 0.0803,-0.349158 0.06227,-0.350111 0.04446,-0.350475 0.0269,-0.350249 0.0096,-0.349433 -0.0075,-0.348028 -0.02438,-0.346034 -0.041,-0.343449 -0.05738,-0.340275 -0.07353,-0.336511 -0.08944,-0.332157 -0.10512,-0.327215 -0.120559,-0.321682 -0.135762,-0.315559 -0.150728,-0.308848 -0.165459,-0.301546 -0.179952,-0.293654 -0.19421,-0.285174 -0.208232,-0.276104 -0.222017,-0.266443 -0.235566,-0.256193 -0.248878,-0.245354 -0.261955,-0.233925 -0.274795,-0.221906 -0.287399,-0.209297 -0.299766,-0.1961 -0.311897,-0.182312 -0.323793,-0.167934 -0.335451,-0.152968 -0.342754,-0.13582 -0.345464,-0.117042 -0.347585,-0.0985 -0.349117,-0.0802 -0.350061,-0.06214 -0.350415,-0.04432 -0.350181,-0.02673 -0.349358,-0.0094 -0.347946,0.0077 -0.345946,0.0246 -0.343356,0.04123 -0.340178,0.05762 -0.336411,0.07378 -0.332055,0.0897 -0.32711,0.105379 -0.321577,0.12082 -0.315454,0.136023 -0.308743,0.150988 -0.301443,0.165713 -0.293555,0.180202 -0.285076,0.194451 -0.276011,0.208462 -0.266355,0.222235 -0.256111,0.23577 -0.245278,0.249066 -0.233857,0.262125 -0.221846,0.274943 -0.209247,0.287526 -0.196058,0.299868 -0.182282,0.311973 -0.167916,0.32384 -0.152961,0.335468 -0.135683,0.342402 -0.116946,0.345147 -0.09844,0.347301 -0.08018,0.348865 -0.06215,0.349839 -0.04436,0.350223 -0.0268,0.350015 -0.0095,0.349218 0.0076,0.34783 0.02446,0.345851 0.04107,0.343284 0.05745,0.340124 0.07359,0.336375 0.0895,0.332035 0.105166,0.327106 0.120601,0.321585 0.135798,0.315474 0.15076,0.308773 0.165486,0.301481 0.179976,0.2936 0.19423,0.285127 0.208248,0.276065 0.22203,0.266412 0.235577,0.256168 0.248887,0.245334 0.261961,0.233911 0.2748,0.221895 0.287402,0.209291 0.299768,0.196096 0.311899,0.18231 0.323793,0.167934 0.335452,0.152968 v 0 m -8.078628,-23.229244 0.45023,-0.30048 0.608107,-0.375842 0.757656,-0.427433 0.898874,-0.4552526 0.499791,-0.2306302 0.531972,-0.2286709 0.563112,-0.2237401 0.593211,-0.2158379 0.622269,-0.2049642 0.650284,-0.1911193 0.677261,-0.1743028 0.703194,-0.1545148 0.728087,-0.1317556 0.751939,-0.1060248 0.77475,-0.077323 0.796519,-0.045649 0.817247,-0.011004 0.836934,0.026612 0.85558,0.0672 0.873185,0.1107595 0.889749,0.1572902 0.90527,0.2067923 0.919752,0.2592659 0.933192,0.3147108 0.945591,0.3731273 0.956949,0.4345151 0.967265,0.4988741 0.97654,0.566205 0.949584,0.614766 0.888967,0.641526 0.830054,0.666239 0.772846,0.688904 0.717344,0.709524 0.663546,0.728095 0.611453,0.744619 0.561065,0.759095 0.512383,0.771526 0.465404,0.781908 0.420132,0.790243 0.376564,0.796532 0.334701,0.800772 0.294542,0.802966 0.25609,0.803112 0.219342,0.801211 0.184298,0.797263 0.150961,0.791268 0.119327,0.783226 0.0894,0.773135 0.06118,0.760999 0.03466,0.746815 0.0098,0.730583 -0.01326,0.712304 -0.03467,0.691979 -0.05437,0.669605 -0.07236,0.645185 -0.08865,0.618718 -0.103231,0.590203 -0.116111,0.559641 -0.127283,0.527032 -0.136753,0.492375 -0.154569,0.477754 -0.180704,0.483668 -0.205093,0.48828 -0.227736,0.491595 -0.248632,0.493609 -0.267783,0.494324 -0.586034,0.985593 -0.641681,0.972858 -0.683361,0.949726 -0.71107,0.916198 -0.72481,0.872273 -0.724582,0.817953 -0.710384,0.753234 -0.682216,0.678122 -0.640079,0.59261 -0.583973,0.496705 -0.513898,0.390401 -0.429854,0.273703 -0.179044,0.08984 -0.152795,0.05677 -0.310513,0.07384 -0.368956,0.0615 -0.418984,0.05014 -0.4606,0.03974 -1.012398,0.0522 -1.077909,0.02229 -1.076116,1.49e-4 -1.007021,-0.01422 -1.537547,-0.04043 -0.584482,4.9e-5 -0.649393,0.02034 -0.684249,0.01717 -0.689047,-0.0095 -0.33693,-0.02205 -0.326859,-0.03751 -0.31303,-0.0559 -0.295444,-0.07722 -0.274101,-0.101481 -0.249001,-0.128668 -0.220145,-0.158791 -0.18753,-0.191844 -0.151775,-0.210636 -0.117199,-0.21065 -0.08662,-0.209981 -0.06004,-0.208629 -0.03746,-0.206593 -0.01888,-0.203875 0.002,-0.396864 0.05101,-0.731058 -7.73e-4,-0.165725 -0.01418,-0.157542 -0.03159,-0.148677 -0.05299,-0.139129 -0.206973,-0.472659 -0.156173,-0.427034 -0.157363,-0.522419 -0.519188,-0.134852 -0.517711,-0.157781 -0.515553,-0.181291 -0.512713,-0.205379 -0.432633,-0.193653 -0.421894,-0.207728 -0.410993,-0.221405 -0.399932,-0.234687 -0.38871,-0.247571 -0.377326,-0.26006 -0.365783,-0.272152 -0.354078,-0.283847 -0.342212,-0.295146 -0.330185,-0.306048 -0.317998,-0.316554 -0.30565,-0.326663 -0.29314,-0.336376 -0.28047,-0.345692 -0.26764,-0.354612 -0.254647,-0.363136 -0.241495,-0.371262 -0.228181,-0.378992 -0.214707,-0.386326 -0.201071,-0.393263 -0.187276,-0.399804 -0.173318,-0.405949 -0.1592,-0.411695 -0.144922,-0.417048 -0.130481,-0.422001 -0.115882,-0.42656 -0.10112,-0.430722 -0.0862,-0.434487 -0.07112,-0.437855 -0.05587,-0.440828 -0.04046,-0.443403 -0.0249,-0.445582 -0.04734,-0.05273 0.102824,-5.045425 0.06407,-3.815072 0.0164,-1.503876 -0.0012,-0.957914 -0.01878,-0.940083 0.0032,-0.524215 0.02306,-0.546749 0.05161,-0.559096 0.08881,-0.561256 0.134657,-0.553228 0.08723,-0.270421 0.101932,-0.264594 0.106338,-0.234413 0.120199,-0.22759 0.134872,-0.21981 0.150358,-0.211073 0.166656,-0.201379 0.183765,-0.190728 0.201687,-0.17912 0.22042,-0.166555 v -1.3e-5"
       style="clip-rule:evenodd;display:inline;fill:#00ff00;fill-opacity:1;fill-rule:evenodd;stroke:#000000;stroke-width:0.0278928;image-rendering:optimizeQuality;shape-rendering:geometricPrecision;text-rendering:geometricPrecision"
       id="path15-0-5" />
  </g>
  <g
     id="g3893"
     inkscape:groupmode="layer"
     inkscape:label="F.Cu"
     style="display:inline">
    <path
       sodipodi:nodetypes="sssccsccsccssccsccssccscsssccsscccssscccsssccccscccccccccsssccccsccccssscsssscsccscccssccccsssccssccss"
       style="clip-rule:evenodd;display:inline;fill:#808000;fill-rule:evenodd;stroke-width:0.03690109;image-rendering:optimizeQuality;shape-rendering:geometricPrecision;text-rendering:geometricPrecision"
       d="m 35.968941,11.809162 c -0.389111,-0.913812 -1.444906,-1.339027 -2.354782,-0.951593 -0.91381,0.38911 -1.33901,1.44495 -0.949897,2.358761 0.25158,0.590827 0.782488,0.974321 1.371383,1.067885 l 0.282501,0.838207 c -0.766116,0.451852 -1.097224,1.411758 -0.73998,2.250733 0.0285,0.06696 0.06096,0.132291 0.09736,0.195898 l -0.823368,1.136916 c -3.254998,-2.541131 -7.753743,-3.282371 -11.822569,-1.549822 -1.118633,0.476325 -2.125723,1.105224 -3.003827,1.851373 l 1.028686,1.213809 c 0.762638,-0.645796 1.634055,-1.188992 2.59907,-1.599906 5.152008,-2.193779 11.105,0.203498 13.298779,5.355508 1.816409,4.265767 0.481884,9.086882 -2.96203,11.860834 l 1.002214,1.239026 c 3.98064,-3.207229 5.526626,-8.788422 3.425091,-13.723791 -0.59373,-1.394351 -1.422858,-2.609299 -2.42333,-3.625722 l 0.936163,-1.287408 c 0.32647,0.05642 0.673992,0.02015 1.004855,-0.120729 0.909871,-0.387433 1.335018,-1.443282 0.947586,-2.353153 -0.197911,-0.464786 -0.564741,-0.801818 -0.999439,-0.970347 l -0.381324,-1.135786 c 0.565539,-0.496729 0.778816,-1.318068 0.466855,-2.050693 z m -14.553642,22.79037 c -1.264282,-0.839664 -2.265613,-2.101509 -2.911609,-3.618611 -1.675525,-3.934904 0.154139,-8.478266 4.089043,-10.153792 3.934907,-1.675524 8.478336,0.154112 10.153858,4.089014 1.556444,3.655247 0.156232,7.959695 -3.218236,9.880494 l 0.716597,1.258522 c 4.065673,-2.308179 5.843639,-7.355351 3.96685,-11.762917 -2.019351,-4.742369 -7.500603,-6.949672 -12.242972,-4.930323 -1.874888,0.798349 -3.35299,2.134985 -4.328702,3.755584 l -4.378484,-1.923137 c 1.205306,-2.20693 3.001797,-4.107245 5.286581,-5.429104 0.488293,0.327176 1.123849,0.410156 1.702856,0.163607 0.913811,-0.389112 1.336782,-1.439332 0.949347,-2.349203 -0.389111,-0.913813 -1.439343,-1.336698 -2.353152,-0.947588 -0.669606,0.285125 -1.077504,0.933415 -1.088658,1.617504 -0.193078,0.114786 -0.382218,0.227911 -0.573621,0.346638 l -0.0599,-0.118785 c 0.423896,-0.501557 0.555977,-1.218497 0.282593,-1.860529 -0.387432,-0.909871 -1.439301,-1.336714 -2.349174,-0.949279 -0.913814,0.389111 -1.335047,1.443215 -0.947615,2.353089 0.268351,0.630215 0.861638,1.029027 1.502907,1.081678 l 0.229955,0.441805 c -2.184532,1.721209 -3.83684,3.960236 -4.851149,6.462732 2.013896,0.817546 3.930578,1.657924 5.940384,2.542353 -0.857313,2.193688 -0.890771,4.715869 0.105487,7.055541 0.757882,1.779864 2.114423,3.283738 3.628047,4.259582 m 5.689569,-0.03415 c -0.128738,0.0035 -0.213887,0.0185 -0.350502,0.02548 l -0.430725,0.0093 c -0.343175,-0.0028 -0.687069,-0.03046 -1.026062,-0.07945 -0.7548,-0.112556 -1.587939,-0.389532 -2.308429,-0.710213 l -0.700639,1.270121 c 0.522947,0.330767 2.510874,0.928338 3.216004,0.893176 l 0.08224,4.017766 c -0.885731,0.400418 -1.294539,1.439924 -0.912137,2.33798 0.387435,0.909874 1.441549,1.331138 2.351421,0.943703 0.909873,-0.387433 1.332803,-1.437635 0.945368,-2.347511 -0.171075,-0.401762 -0.468811,-0.707663 -0.825898,-0.890626 l 0.07865,-8.68e-4 c -0.04168,-1.889986 -0.08096,-3.586626 -0.119287,-5.468733 z m -2.372668,2.118755 C 20.675432,37.403323 17.70852,35.232703 16.29799,31.920135 15.538217,30.135839 15.328965,28.256741 15.593395,26.473713 l -0.0017,-0.0039 -0.03915,-0.0811 -5.508776,-1.004429 -0.03017,-0.07088 c -0.3873916,-0.909889 -1.4376366,-1.3328 -2.351447,-0.943689 -0.9098758,0.387434 -1.3328016,1.437638 -0.9453702,2.347511 0.2029432,0.4766 0.5883313,0.824282 1.0427211,0.984425 -0.1394607,0.02217 -0.2761629,0.06174 -0.4140221,0.120442 -0.9098717,0.387433 -1.3327814,1.437677 -0.9436727,2.351489 0.3874097,0.909845 1.4376132,1.332772 2.347485,0.945338 0.9138111,-0.389109 1.3367129,-1.439302 0.9492813,-2.349175 -0.2029432,-0.4766 -0.5922283,-0.8227 -1.0426836,-0.98452 0.1394609,-0.02215 0.2761228,-0.06172 0.4100426,-0.118749 0.3348029,-0.142562 0.6040786,-0.373535 0.7879854,-0.651925 l 4.0405832,0.736277 c -0.02677,1.598081 0.270677,3.225546 0.938203,4.793204 1.63192,3.832494 5.065179,6.344257 8.889577,6.977152 l 0.262813,-1.568298 z m -1.665706,3.431313 c -0.387433,-0.909875 -1.44331,-1.335088 -2.353182,-0.947654 -0.437211,0.18617 -0.765172,0.530556 -0.941503,0.936005 l -1.585343,0.298187 c -0.303362,-0.559471 -0.873156,-0.903157 -1.479054,-0.9383 l -0.386107,-1.46416 c 0.535201,-0.502423 0.725949,-1.30021 0.424053,-2.009203 -0.389112,-0.913812 -1.443284,-1.335019 -2.353157,-0.947584 -0.909872,0.387433 -1.332812,1.437611 -0.9437,2.351421 0.241516,0.567193 0.742101,0.945004 1.30678,1.058185 l 0.446853,1.694214 c -0.392969,0.497693 -0.508146,1.188806 -0.243148,1.811146 0.387435,0.909871 1.441618,1.331103 2.35149,0.943673 0.405698,-0.172752 0.717834,-0.47778 0.901384,-0.844423 l 1.666855,-0.314259 c 0.454696,0.750947 1.403399,1.077519 2.238434,0.721953 0.90987,-0.387432 1.33678,-1.439332 0.949346,-2.349203 z"
       id="path17"
       inkscape:label="Cu.R"
       inkscape:connector-curvature="0" />
    <path
       id="path17-3"
       d="m 59.608071,40.485737 c 0.43721,0.186172 0.765176,0.530558 0.941503,0.936006 l 1.58534,0.298187 c 0.30337,-0.559468 0.873166,-0.903154 1.479057,-0.938298 l 0.386109,-1.46416 c -0.5352,-0.502423 -0.725948,-1.300211 -0.424052,-2.009203 0.389112,-0.913813 1.443281,-1.33502 2.353154,-0.947583 0.909873,0.387432 1.332815,1.437607 0.943701,2.351418 -0.241514,0.567194 -0.7421,0.945004 -1.30678,1.058188 l -0.446846,1.694214 c 0.392964,0.497691 0.508141,1.188806 0.243141,1.811147 -0.387436,0.909871 -1.441619,1.331103 -2.351486,0.943672 -0.405705,-0.172754 -0.717837,-0.477784 -0.901385,-0.84443 l -1.666858,-0.314253 c -0.454697,0.750945 -1.403397,1.077522 -2.23843,0.721955 -0.909879,-0.387437 -1.336784,-1.439334 -0.94935,-2.349205 0.387432,-0.909875 1.443308,-1.335088 2.353182,-0.947655 z m 3.611405,-8.452887 c 0.759777,-1.784296 1.024178,-3.72304 0.759753,-5.506066 l 0.0017,-0.0039 0.03915,-0.08109 5.50877,-1.004431 0.03017,-0.07087 c 0.387435,-0.909871 1.437679,-1.332783 2.351493,-0.943676 0.909869,0.387439 1.332798,1.437643 0.945364,2.347513 -0.202935,0.476598 -0.588328,0.824281 -1.042719,0.984426 0.139463,0.02217 0.276163,0.06174 0.414024,0.120439 0.909872,0.387436 1.332784,1.437679 0.94367,2.35149 -0.387429,0.909871 -1.437634,1.3328 -2.347514,0.945369 -0.913805,-0.389114 -1.336705,-1.439306 -0.949274,-2.349176 0.202944,-0.476603 0.592229,-0.822701 1.042682,-0.984522 -0.139457,-0.02217 -0.276122,-0.06172 -0.41004,-0.118746 -0.334806,-0.142565 -0.604086,-0.373536 -0.787985,-0.651925 l -4.040621,0.736266 c 0.02676,1.598081 -0.205913,3.317296 -0.873442,4.884954 -0.815956,1.916251 -2.23245,3.46764 -3.853634,4.712161 -1.658569,1.27322 -3.76053,2.016039 -5.675146,2.234128 -0.139825,-0.518207 -0.156125,-1.051342 -0.205848,-1.583133 1.664308,-0.187003 3.465111,-0.832378 4.876338,-1.891878 1.400565,-1.051493 2.567833,-2.471028 3.273096,-4.127312 z m -9.283052,3.733351 c 0.741162,0.0234 0.826248,0.05902 1.043262,0.0013 l 0.135342,1.473093 -0.441676,0.06317 c -0.254896,0.03645 -0.25914,0.450657 -0.31495,0.700523 -0.133515,0.597823 -0.09742,1.228434 -0.03116,1.837392 0.02561,0.235447 0.101738,0.462836 0.164545,0.691193 0.07192,0.261528 0.242848,0.776626 0.242848,0.776626 0.885731,0.400421 1.294537,1.439927 0.912135,2.337984 -0.387433,0.909872 -1.441546,1.331135 -2.351417,0.943699 -0.909878,-0.38743 -1.332802,-1.437634 -0.945369,-2.347509 0.171073,-0.401762 0.468811,-0.70766 0.825901,-0.890626 L 52.97341,40.653041 52.90259,38.922649 c -0.01623,-0.396363 0.0262,-0.770051 0.135788,-1.704901 l 0.174997,-1.492896 c 0.01499,-0.127911 0.586428,0.03442 0.723042,0.04142 z m 3.667359,-16.35121 c 1.874891,0.798346 3.352992,2.134984 4.328705,3.755579 l 4.37848,-1.923134 c -1.205306,-2.206931 -3.001796,-4.107246 -5.286577,-5.429105 -0.488293,0.327176 -1.123848,0.410155 -1.70286,0.163609 -0.913812,-0.389109 -1.336781,-1.439331 -0.94935,-2.349204 0.389116,-0.913812 1.439347,-1.336697 2.353158,-0.947586 0.669604,0.285123 1.077503,0.933413 1.088656,1.617505 0.193079,0.114785 0.382221,0.22791 0.573624,0.346634 l 0.05989,-0.118784 c -0.423893,-0.501556 -0.555978,-1.218496 -0.282591,-1.860528 0.387437,-0.909871 1.439303,-1.336709 2.349175,-0.949277 0.913811,0.389109 1.335043,1.443213 0.947612,2.353086 -0.268348,0.630214 -0.861637,1.029025 -1.502904,1.081678 l -0.229951,0.441805 c 2.184528,1.72121 3.836841,3.96024 4.85115,6.462731 -2.0139,0.817545 -3.930579,1.657926 -5.940389,2.542354 0.857318,2.193691 0.81434,4.684777 -0.105483,7.055543 -1.273323,3.281879 -4.82516,5.223036 -6.972276,5.490513 l -0.158888,-1.447778 c 0.994187,-0.186371 2.264841,-0.71121 3.318996,-1.560961 1.050089,-0.846471 1.884398,-1.936 2.341808,-3.06444 1.606606,-3.963544 -0.148982,-8.519506 -4.083886,-10.195032 -3.934909,-1.675521 -8.478337,0.15411 -10.153863,4.089012 -1.556441,3.655249 -0.08459,7.836927 3.289873,9.757728 l -0.788232,1.381289 c -4.065676,-2.308178 -5.843641,-7.355349 -3.966852,-11.762917 2.019349,-4.742367 7.500604,-6.94967 12.242971,-4.93032 z m -11.645328,-8.50435 c 0.913811,0.38911 1.339004,1.444949 0.949895,2.358761 -0.251578,0.590826 -0.782491,0.97432 -1.371385,1.067882 L 45.25447,15.17549 c 0.766109,0.451854 1.097219,1.411762 0.739977,2.250734 -0.0285,0.06697 -0.06096,0.132289 -0.09735,0.195899 l 0.823363,1.136916 c 3.255,-2.541132 7.753744,-3.282372 11.822569,-1.549822 1.118636,0.476326 2.125722,1.105226 3.003832,1.851372 l -1.028697,1.213809 c -0.762635,-0.645795 -1.634055,-1.188992 -2.599074,-1.599906 -5.152003,-2.193779 -11.104997,0.203501 -13.298777,5.355512 -1.816408,4.265764 -0.481884,9.086878 2.962031,11.860832 l -1.002216,1.239023 c -3.980636,-3.207224 -5.526624,-8.788419 -3.425092,-13.723792 0.593731,-1.394346 1.422863,-2.609293 2.423332,-3.625721 l -0.936164,-1.287404 c -0.326466,0.05642 -0.673989,0.02015 -1.004849,-0.120732 -0.90988,-0.387431 -1.335023,-1.443282 -0.94759,-2.353153 0.197911,-0.464783 0.564738,-0.801818 0.999436,-0.970346 l 0.381327,-1.135783 c -0.565544,-0.496731 -0.77882,-1.318071 -0.46686,-2.050692 0.389109,-0.913815 1.444912,-1.339027 2.354787,-0.951595 z"
       style="clip-rule:evenodd;display:inline;fill:#808000;fill-rule:evenodd;stroke-width:0.03690109;image-rendering:optimizeQuality;shape-rendering:geometricPrecision;text-rendering:geometricPrecision"
       sodipodi:nodetypes="sccccsssccssccssssccccssscsssscsccssccsscccsaaacsssccssscscccssscccsssccccsccssssccssssccsccsccssccsccssccss"
       inkscape:label="Cu.L"
       inkscape:connector-curvature="0" />
    <path
       id="path112"
       style="clip-rule:evenodd;display:inline;fill:#808000;fill-rule:evenodd;stroke-width:0.03690109;image-rendering:optimizeQuality;shape-rendering:geometricPrecision;text-rendering:geometricPrecision"
       d="m 50.309177,10.110476 v 2.814065 h 2.754242 v -2.814065 z m 0.147602,0.145733 h 2.479504 v 2.555181 h -2.479504 z m 1.830336,2.113037 h -1.086272 v -1.717054 h 0.228322 v 1.514101 h 0.85795 z"
       inkscape:label="L"
       inkscape:connector-curvature="0" />
    <path
       id="rect33"
       style="clip-rule:evenodd;display:inline;fill:#808000;fill-rule:evenodd;stroke-width:0.03690109;image-rendering:optimizeQuality;shape-rendering:geometricPrecision;text-rendering:geometricPrecision"
       d="m 25.728836,10.049272 v 2.814067 h 2.754242 v -2.814067 z m 0.147601,0.14573 h 2.479509 v 2.555183 H 25.876437 Z M 27.93454,12.34339 H 27.638182 L 27.063909,11.660719 H 26.742176 V 12.34339 H 26.51385 v -1.717054 h 0.480867 q 0.155679,0 0.259462,0.02075 0.103782,0.01961 0.18681,0.0715 0.09341,0.05881 0.1453,0.148758 0.05305,0.08879 0.05305,0.226019 0,0.185658 -0.09341,0.311352 -0.09341,0.124541 -0.257153,0.187966 z m -0.533911,-1.233882 q 0,-0.0738 -0.02652,-0.130307 -0.02538,-0.05766 -0.08534,-0.09686 -0.04959,-0.03344 -0.117626,-0.04613 -0.06804,-0.01386 -0.16029,-0.01386 h -0.268686 v 0.648076 h 0.230632 q 0.108398,0 0.189117,-0.01845 0.08072,-0.0196 0.137226,-0.0715 0.05189,-0.04844 0.07611,-0.110703 0.02538,-0.06343 0.02538,-0.160289 z"
       inkscape:label="R"
       inkscape:connector-curvature="0" />
  </g>
  <g
     id="g3895"
     inkscape:groupmode="layer"
     inkscape:label="B.Cu-disabled" />
  <g
     id="g3897"
     inkscape:groupmode="layer"
     inkscape:label="B.Adhes-disabled" />
  <g
     id="g3899"
     inkscape:groupmode="layer"
     inkscape:label="F.Adhes-disabled" />
  <g
     id="g3901"
     inkscape:groupmode="layer"
     inkscape:label="B.Paste-disabled" />
  <g
     id="g3903"
     inkscape:groupmode="layer"
     inkscape:label="F.Paste-disabled" />
  <g
     id="g3905"
     inkscape:groupmode="layer"
     inkscape:label="B.SilkS-disabled" />
  <g
     id="g3907"
     inkscape:groupmode="layer"
     inkscape:label="F.SilkS-disabled" />
  <g
     id="g3909"
     inkscape:groupmode="layer"
     inkscape:label="B.Mask-disabled" />
  <g
     id="g3911"
     inkscape:groupmode="layer"
     inkscape:label="F.Mask-disabled" />
  <g
     id="g3913"
     inkscape:groupmode="layer"
     inkscape:label="Dwgs.User-disabled" />
  <g
     id="g3915"
     inkscape:groupmode="layer"
     inkscape:label="Cmts.User-disabled" />
  <g
     id="g3917"
     inkscape:groupmode="layer"
     inkscape:label="Eco1.User-disabled" />
  <g
     id="g3919"
     inkscape:groupmode="layer"
     inkscape:label="Eco2.User-disabled" />
  <g
     id="g3923"
     inkscape:groupmode="layer"
     inkscape:label="Margin-disabled" />
  <g
     id="g3925"
     inkscape:groupmode="layer"
     inkscape:label="B.CrtYd-disabled" />
  <g
     id="g3927"
     inkscape:groupmode="layer"
     inkscape:label="F.CrtYd-disabled" />
  <g
     id="g3929"
     inkscape:groupmode="layer"
     inkscape:label="B.Fab-disabled" />
  <g
     id="g3931"
     inkscape:groupmode="layer"
     inkscape:label="F.Fab-disabled" />
  <g
     id="g3933"
     inkscape:groupmode="layer"
     inkscape:label="Drill" />
</svg>
